Name,Place,Division,Sex,WeightClassKg,BodyweightKg,Age,Event,Best3SquatKg,Best3BenchKg,Bench4Kg,Best3DeadliftKg,Deadlift4Kg,TotalKg,Equipment
Alex Decker,1,Juniors 19-23,F,52,51.26,19,SBD,72.50,40.00,,105.00,,217.50,Single-ply
Imelda Fowler,1,Open,F,44,43.09,46,SBD,85.00,50.00,,142.50,,277.50,Single-ply
Denise Dinger,1,Open,F,56,53.89,44,SBD,120.00,72.50,,125.00,,317.50,Single-ply
Monica Sparango,1,Open,F,67.5,66.50,43,SBD,132.50,102.50,,150.00,,385.00,Single-ply
Karen Matthews,2,Open,F,67.5,64.86,37,SBD,147.50,75.00,,157.50,,380.00,Single-ply
Denise Martinez,1,Open,F,75,73.30,24,SBD,102.50,65.00,,125.00,,292.50,Single-ply
Nicki I'Anson,1,Open,F,90+,97.34,40,SBD,145.00,102.50,,150.00,,397.50,Single-ply
Imelda Fowler,1,Masters 40-49,F,44,43.09,46,SBD,85.00,50.00,,142.50,,277.50,Single-ply
Denise Dinger,2,Masters 40-49,F,56,53.89,44,SBD,120.00,72.50,,125.00,,317.50,Single-ply
Nicki I'Anson,3,Masters 40-49,F,90+,97.34,40,SBD,145.00,102.50,104.78,150.00,,397.50,Single-ply
Kathy Andrews,1,Masters 50-59,F,67.5,66.41,50,SBD,90.00,45.00,,105.00,,240.00,Single-ply
Chris Waldrum,1,Juniors 19-23,M,100,92.99,21,SBD,182.50,175.00,,210.00,,567.49,Single-ply
Jack Mapes,2,Juniors 19-23,M,90,88.63,22,SBD,187.50,137.50,,187.50,,512.50,Single-ply
Nathan Wright,DQ,Juniors 19-23,M,140+,141.88,20,SBD,280.00,-237.23,,,,,Single-ply
Scott Layman,1,Open,M,67.5,67.13,35,SBD,265.00,177.50,,235.00,,677.49,Single-ply
Vince Tanabe,2,Open,M,67.5,64.59,43,SBD,207.50,60.00,,212.50,,480.00,Single-ply
Ian Espinoza,1,Open,M,75,72.03,33,SBD,227.50,137.50,,197.50,,562.50,Single-ply
Joseph Lipanovich,2,Open,M,75,74.93,24,SBD,182.50,142.50,,200.00,,525.00,Single-ply
John Caputo #2,1,Open,M,82.5,80.38,37,SBD,247.50,150.00,,250.00,,647.49,Single-ply
Leon Sparango,2,Open,M,82.5,78.11,33,SBD,205.00,167.50,,205.00,,577.50,Single-ply
Jose Hernandez #1,1,Open,M,90,89.09,38,SBD,265.00,162.50,,230.00,,657.49,Single-ply
Chris Mangano,2,Open,M,90,83.73,30,SBD,112.50,102.50,,160.00,,375.00,Single-ply
Pat Hakola,1,Open,M,110,106.59,27,SBD,315.00,235.00,,320.00,,869.99,Single-ply
Ricardo Costa,2,Open,M,110,109.41,30,SBD,210.00,212.50,,235.00,,657.49,Single-ply
Joe Dentice,3,Open,M,110,109.77,47,SBD,217.50,172.50,,250.00,,639.99,Single-ply
Filiberto Toledano,1,Open,M,125,122.47,29,SBD,272.50,187.50,,267.50,,727.49,Single-ply
Robert Speno,DQ,Open,M,125,123.74,37,SBD,330.00,-239.95,,,,,Single-ply
Victor Calia,1,Masters 40-49,M,90,89.36,42,SBD,255.00,207.50,,280.00,,742.49,Single-ply
Joe Dentice,2,Masters 40-49,M,110,109.77,47,SBD,217.50,172.50,,250.00,,639.99,Single-ply
Doug Hester,3,Masters 40-49,M,125,122.38,43,SBD,192.50,190.00,,222.50,,604.99,Single-ply
Darrell Robideau,4,Masters 40-49,M,90,88.09,41,SBD,175.00,170.00,,190.00,,534.99,Single-ply
Kenny Croxdale,1,Masters 50-59,M,100,93.44,57,SBD,210.00,155.00,,265.00,,629.99,Single-ply
Edwin Lewis,2,Masters 50-59,M,90,89.72,57,SBD,200.00,110.00,,192.50,,502.49,Single-ply
Greg Baxter,3,Masters 50-59,M,100,92.53,51,SBD,192.50,150.00,,220.00,,562.50,Single-ply
Kevin Meskew,4,Masters 50-59,M,56,55.16,50,SBD,110.00,77.50,,147.50,,335.00,Single-ply
Roy Taylor,1,Masters 60-69,M,90,88.18,66,SBD,152.50,82.50,,202.50,,437.49,Single-ply
Gordon Santee,2,Masters 60-69,M,75,72.67,60,SBD,100.00,85.00,,217.50,227.25,402.50,Single-ply
Richard Simon,1,Masters 70-79,M,82.5,80.10,75,SBD,125.00,117.50,,142.50,,385.00,Single-ply
Jodalyn Holland,1,Juniors 19-23,F,56,55.79,19,B,,45.00,,,,45.00,Single-ply
Imelda Fowler,1,Open,F,44,43.09,46,B,,50.00,,,,50.00,Single-ply
Nicki I'Anson,1,Open,F,90+,97.34,40,B,,102.50,,,,102.50,Single-ply
Monica Sparango,1,Masters 40-49,F,67.5,66.50,43,B,,102.50,105.23,,,102.50,Single-ply
Nicki I'Anson,2,Masters 40-49,F,90+,97.34,40,B,,102.50,104.78,,,102.50,Single-ply
Imelda Fowler,3,Masters 40-49,F,44,43.09,46,B,,50.00,,,,50.00,Single-ply
Bonnie Aerts,DQ,Masters 40-49,F,52,51.89,47,B,,,,,,,Single-ply
Sabra Callahan,1,Masters 50-59,F,56,55.70,50,B,,97.50,,,,97.50,Single-ply
Kenny Wilson,1,Juniors 13-15,M,100,91.53,15,B,,122.50,,,,122.50,Single-ply
Joe Iriberri,2,Juniors 13-15,M,75,73.12,14,B,,70.00,,,,70.00,Single-ply
Robert Ford,1,Juniors 16-18,M,100,99.34,16,B,,127.50,,,,127.50,Single-ply
Steve Ward Jr,2,Juniors 16-18,M,75,73.03,18,B,,95.00,,,,95.00,Single-ply
Chase Collins,1,Juniors 19-23,M,125,120.84,19,B,,242.50,,,,242.50,Single-ply
Narbe Mansourian,1,Open,M,67.5,64.95,30,B,,160.00,,,,160.00,Single-ply
Dick Davis,1,Open,M,75,74.93,24,B,,152.50,,,,152.50,Single-ply
Ralph Ridenour,1,Open,M,90,88.54,30,B,,180.00,,,,180.00,Single-ply
Bob Evans #3,1,Open,M,110,106.32,59,B,,191.50,,,,191.50,Single-ply
Ron Garcia,2,Open,M,110,108.59,43,B,,185.00,,,,185.00,Single-ply
Scott Hoekstra,1,Open,M,125,121.56,39,B,,280.00,,,,280.00,Single-ply
Alan Aerts,2,Open,M,125,119.20,50,B,,205.00,,,,205.00,Single-ply
Chuck LaMantia,3,Open,M,125,124.38,48,B,,182.50,,,,182.50,Single-ply
Ernie Dela Torre,DQ,Open,M,125,111.67,37,B,,-212.28,,,,,Single-ply
David Marr,1,Open,M,140,133.36,40,B,,273.00,,,,273.00,Single-ply
Clinton Sims,1,Masters 40-49,M,110,102.78,49,B,,267.50,,,,267.50,Single-ply
David Marr,2,Masters 40-49,M,140,133.36,40,B,,273.00,,,,273.00,Single-ply
Chuck LaMantia,3,Masters 40-49,M,125,124.38,48,B,,182.50,,,,182.50,Single-ply
Ron Garcia,4,Masters 40-49,M,110,108.59,43,B,,185.00,,,,185.00,Single-ply
Morgan Long #1,5,Masters 40-49,M,100,97.52,46,B,,160.00,,,,160.00,Single-ply
Bob Evans #3,1,Masters 50-59,M,110,106.32,59,B,,191.50,192.78,,,191.50,Single-ply
Alan Aerts,2,Masters 50-59,M,125,119.20,50,B,,205.00,,,,205.00,Single-ply
Doug Knapp,3,Masters 50-59,M,140,126.19,59,B,,175.00,,,,175.00,Single-ply
Rudy Lozano,1,Masters 60-69,M,82.5,79.11,67,B,,165.00,,,,165.00,Single-ply
Bill Bradley,2,Masters 60-69,M,100,99.06,69,B,,140.00,,,,140.00,Single-ply
Daniel Smith III,3,Masters 60-69,M,110,104.69,63,B,,160.00,,,,160.00,Single-ply
Lou Kassiris,4,Masters 60-69,M,110,105.41,65,B,,140.00,,,,140.00,Single-ply
Richard Simon,1,Masters 70-79,M,82.5,80.10,75,B,,117.50,,,,117.50,Single-ply
Alan Newman,2,Masters 70-79,M,82.5,81.56,70,B,,126.00,,,,126.00,Single-ply
Jim Andres,3,Masters 70-79,M,60,59.33,71,B,,72.50,,,,72.50,Single-ply
Imelda Fowler,1,Open,F,44,43.09,46,D,,,,142.50,,142.50,Single-ply
Karen Matthews,1,Open,F,67.5,64.86,37,D,,,,157.50,,157.50,Single-ply
Nicki I'Anson,1,Open,F,90+,97.34,40,D,,,,150.00,,150.00,Single-ply
Imelda Fowler,1,Masters 40-49,F,44,43.09,46,D,,,,142.50,,142.50,Single-ply
Monica Sparango,2,Masters 40-49,F,67.5,66.50,43,D,,,,150.00,,150.00,Single-ply
Nicki I'Anson,3,Masters 40-49,F,90+,97.34,40,D,,,,150.00,,150.00,Single-ply
Sabra Callahan,1,Masters 50-59,F,56,55.70,50,D,,,,122.50,,122.50,Single-ply
Robert Speno,1,Open,M,125,123.74,37,D,,,,277.50,,277.50,Single-ply
Alan Aerts,2,Open,M,125,119.20,50,D,,,,220.00,,220.00,Single-ply
Clinton Sims,1,Masters 40-49,M,110,102.78,49,D,,,,310.00,,310.00,Single-ply
Mark Perez,2,Masters 40-49,M,140,128.46,44,D,,,,235.00,,235.00,Single-ply
Stephen Matthews,3,Masters 40-49,M,110,104.51,44,D,,,,202.50,,202.50,Single-ply
Alan Aerts,1,Masters 50-59,M,125,119.20,50,D,,,,220.00,,220.00,Single-ply
Gordon Santee,1,Masters 60-69,M,75,72.67,60,D,,,,217.50,227.25,217.50,Single-ply
Roy Taylor,2,Masters 60-69,M,90,88.18,66,D,,,,202.50,,202.50,Single-ply
Roger Hill,1,Masters 70-79,M,75,69.49,72,D,,,,192.50,,192.50,Single-ply
Richard Simon,2,Masters 70-79,M,82.5,80.10,75,D,,,,142.50,,142.50,Single-ply
Alan Newman,3,Masters 70-79,M,82.5,81.56,70,D,,,,156.00,,156.00,Single-ply
