Division,WeightClassKg,Place,Name,Team,BodyweightKg,Best3SquatKg,Best3BenchKg,Best3DeadliftKg,TotalKg,Equipment,Event,Sex
Boys,51.71,1,Darian Butler,Denison,46.9,95.25,49.9,97.52,242.67,Single-ply,SBD,M
Boys,55.79,2,Jeremy Cueller,Denison,51.94,74.84,61.23,102.06,238.14,Single-ply,SBD,M
Boys,51.71,3,Dylan McElroy,Honey Grove,48.26,83.91,43.09,79.38,206.38,Single-ply,SBD,M
Boys,51.71,DQ,Ethan Payne,Bonham,48.81,,,,,Single-ply,SBD,M
Boys,51.71,DQ,Hunter Addison,Krum,50.53,70.31,,,,Single-ply,SBD,M
Boys,55.79,1,Juan Salazar,Bonham,55.07,127.01,88.45,136.08,351.53,Single-ply,SBD,M
Boys,55.79,DQ,Zack Brigandi,Little Elm,54.61,,,,,Single-ply,SBD,M
Boys,59.87,1,Baldemar Carbajal,Sherman,57.88,138.35,95.25,151.95,385.55,Single-ply,SBD,M
Boys,59.87,2,Chris Bowling,Blue Ridge,58.97,138.35,95.25,142.88,376.48,Single-ply,SBD,M
Boys,59.87,3,Steven Keenan,Bonham,59.42,129.27,81.65,161.03,371.95,Single-ply,SBD,M
Boys,59.87,4,Andrew Magedson,Leonard,58.88,136.08,81.65,145.15,362.87,Single-ply,SBD,M
Boys,67.13,5,Jj Brian,Leonard,59.96,127.01,83.91,147.42,358.34,Single-ply,SBD,M
Boys,59.87,6,Jaden Smith #1,Krum,58.79,131.54,70.31,154.22,356.07,Single-ply,SBD,M
Boys,67.13,7,Cole Owens,Bonham,59.96,129.27,79.38,140.61,349.27,Single-ply,SBD,M
Boys,59.87,8,Blaine Brooks,Krum,56.7,102.06,86.18,158.76,347,Single-ply,SBD,M
Boys,59.87,9,Daniel Scott #3,Anna,58.42,127.01,68.04,127.01,322.05,Single-ply,SBD,M
Boys,59.87,10,Travis Doke,Prosper,58.51,102.06,83.91,131.54,317.51,Single-ply,SBD,M
Boys,59.87,11,Andres Perez,Krum,57.33,92.99,72.57,136.08,301.64,Single-ply,SBD,M
Boys,67.13,12,Anthony Acevedo,Prosper,60.1,99.79,79.38,113.4,292.57,Single-ply,SBD,M
Boys,59.87,13,Miles Knudsen,Honey Grove,59.15,97.52,47.63,111.13,256.28,Single-ply,SBD,M
Boys,67.13,1,Deontre Baker,Denison,66.13,170.1,88.45,226.8,485.34,Single-ply,SBD,M
Boys,67.13,2,Jake Ratcliff,Denison,67.04,188.24,88.45,176.9,453.59,Single-ply,SBD,M
Boys,67.13,3,Deontay Cornelius,Little Elm,60.15,165.56,74.84,161.03,401.43,Single-ply,SBD,M
Boys,67.13,4,Wilson Kirkbride,Denison,61.42,151.95,83.91,163.29,399.16,Single-ply,SBD,M
Boys,67.13,5,Brad Presser,Sherman,63.05,142.88,102.06,151.95,396.89,Single-ply,SBD,M
Boys,67.13,6,Marco Hernandez,Bonham,60.87,122.47,83.91,156.49,362.87,Single-ply,SBD,M
Boys,67.13,7,Lane Simpson,Bonham,61.23,129.27,79.38,151.95,360.61,Single-ply,SBD,M
Boys,67.13,8,Daniel Hernandez,Princeton,62.51,131.54,77.11,149.69,358.34,Single-ply,SBD,M
Boys,67.13,9,Isaiah Eley,Prosper,63.96,138.35,74.84,145.15,358.34,Single-ply,SBD,M
Boys,67.13,10,Noah Morris,Anna,66.86,122.47,65.77,158.76,347,Single-ply,SBD,M
Boys,67.13,11,Lantric Carter,Carrollton Creekview,66.95,120.2,70.31,147.42,337.93,Single-ply,SBD,M
Boys,67.13,12,Nick Ellis,Prosper,64.23,124.74,86.18,122.47,333.39,Single-ply,SBD,M
Boys,67.13,13,Domanick Hughes,Carrollton Creekview,64.68,122.47,83.91,127.01,333.39,Single-ply,SBD,M
Boys,67.13,14,Bryce Welsh,Melissa,66.86,127.01,70.31,124.74,322.05,Single-ply,SBD,M
Boys,67.13,15,Eli Shields,Bonham,62.32,122.47,63.5,131.54,317.51,Single-ply,SBD,M
Boys,67.13,DQ,Alex Pound,Argyle,65.77,,,,,Single-ply,SBD,M
Boys,67.13,DQ,Conner Redden,Anna,61.33,113.4,,,,Single-ply,SBD,M
Boys,67.13,DQ,Matt Kinerd,Anna,66.22,,,,,Single-ply,SBD,M
Boys,67.13,DQ,Phillip Mayfield,Princeton,66.95,,,,,Single-ply,SBD,M
Boys,67.13,DQ,Dalton Hill,Van Alstyne,60.87,,,,,Single-ply,SBD,M
Boys,67.13,DQ,Christian Contreras #2,Leonard,64.32,,,,,Single-ply,SBD,M
Boys,74.84,1,Ty Slaughter,Anna,71.58,240.4,138.35,231.33,610.08,Single-ply,SBD,M
Boys,74.84,2,Hoss McElroy,Honey Grove,73.39,188.24,102.06,192.78,483.08,Single-ply,SBD,M
Boys,82.1,3,Trelon Lyday,Denison,74.93,176.9,102.06,183.7,462.66,Single-ply,SBD,M
Boys,82.1,4,Preston Bluett,Princeton,75.07,181.44,92.99,179.17,453.59,Single-ply,SBD,M
Boys,82.1,5,Parker Taylor,Argyle,74.93,165.56,99.79,183.7,449.06,Single-ply,SBD,M
Boys,74.84,6,Tyler Tarrence,Little Elm,71.4,158.76,97.52,176.9,433.18,Single-ply,SBD,M
Boys,74.84,7,Antonio Barragan,Anna,71.8,156.49,104.33,170.1,430.91,Single-ply,SBD,M
Boys,74.84,8,Alejandro Vazquez,Little Elm,72.3,156.49,95.25,161.03,412.77,Single-ply,SBD,M
Boys,74.84,9,Josh Murley,Princeton,73.84,154.22,74.84,179.17,408.23,Single-ply,SBD,M
Boys,74.84,10,Levi Jones,Van Alstyne,68.13,149.69,90.72,158.76,399.16,Single-ply,SBD,M
Boys,74.84,11,Dusty Burris,Princeton,71.4,136.08,102.06,158.76,396.89,Single-ply,SBD,M
Boys,74.84,12,Danny Compton,Whitesboro,70.03,142.88,90.72,154.22,387.82,Single-ply,SBD,M
Boys,74.84,13,Joseph Murrell,Little Elm,71.76,142.88,79.38,161.03,383.29,Single-ply,SBD,M
Boys,74.84,14,Austin Mars,Anna,72.67,127.01,88.45,149.69,365.14,Single-ply,SBD,M
Boys,74.84,15,Isaac Pierce,Carrollton Creekview,73.12,120.2,83.91,158.76,362.87,Single-ply,SBD,M
Boys,74.84,16,Evan Wilson,Bonham,71.76,124.74,77.11,158.76,360.61,Single-ply,SBD,M
Boys,74.84,17,Ronnie Hart,Leonard,71.67,124.74,74.84,145.15,344.73,Single-ply,SBD,M
Boys,74.84,18,Austin Ballard,Bonham,68.04,127.01,68.04,140.61,335.66,Single-ply,SBD,M
Boys,74.84,19,Garrett Douglas,Van Alstyne,70.76,108.86,74.84,149.69,333.39,Single-ply,SBD,M
Boys,74.84,20,Roy Goins,Little Elm,68.86,124.74,70.31,122.47,317.51,Single-ply,SBD,M
Boys,74.84,21,Samuel Morales,Anna,72.53,113.4,72.57,113.4,299.37,Single-ply,SBD,M
Boys,74.84,22,Tyler Walthall,Melissa,67.86,79.38,65.77,117.93,263.08,Single-ply,SBD,M
Boys,74.84,DQ,Dylan Price,Princeton,72.57,,,,,Single-ply,SBD,M
Boys,74.84,DQ,Joseph Villanueva,Blue Ridge,73.21,115.67,,,,Single-ply,SBD,M
Boys,82.1,1,Tanner Johnson,Whitesboro,75.75,226.8,106.59,226.8,560.19,Single-ply,SBD,M
Boys,82.1,2,Devon Blanton,Denison,79.47,183.7,115.67,238.14,537.51,Single-ply,SBD,M
Boys,82.1,3,Jordan Fortner,Melissa,76.93,170.1,115.67,210.92,496.68,Single-ply,SBD,M
Boys,82.1,4,George Flores,Princeton,78.56,165.56,124.74,204.12,494.42,Single-ply,SBD,M
Boys,82.1,5,Jake Haker,Van Alstyne,79.29,192.78,120.2,170.1,483.08,Single-ply,SBD,M
Boys,82.1,6,Brandon Murphey,Whitesboro,80.74,170.1,99.79,176.9,446.79,Single-ply,SBD,M
Boys,82.1,7,Bradley Walker,Denison,77.38,158.76,102.06,183.7,444.52,Single-ply,SBD,M
Boys,82.1,8,Josh Cummins,Krum,77.66,145.15,81.65,170.1,396.89,Single-ply,SBD,M
Boys,82.1,9,Ethan Ford,Krum,79.38,136.08,86.18,170.1,392.36,Single-ply,SBD,M
Boys,89.81,10,Hunter McQuarters,Honey Grove,82.19,147.42,83.91,154.22,385.55,Single-ply,SBD,M
Boys,89.81,11,Noel Sithole,Prosper,82.33,133.81,90.72,154.22,378.75,Single-ply,SBD,M
Boys,82.1,12,Caleb Blackwell,Van Alstyne,81.19,136.08,92.99,147.42,376.48,Single-ply,SBD,M
Boys,89.81,13,Reece Miller,Bonham,82.19,136.08,83.91,140.61,360.61,Single-ply,SBD,M
Boys,82.1,14,Ross Hendley,Prosper,77.56,124.74,90.72,136.08,351.53,Single-ply,SBD,M
Boys,82.1,15,Tanner Young,Leonard,77.84,104.33,88.45,158.76,351.53,Single-ply,SBD,M
Boys,82.1,16,Malik Salahuddin,Prosper,77.47,124.74,81.65,140.61,347,Single-ply,SBD,M
Boys,82.1,17,Sean Henricks,Anna,81.78,113.4,74.84,117.93,306.17,Single-ply,SBD,M
Boys,89.81,1,Bowen Kirkbride,Denison,88.54,235.87,142.88,242.67,621.42,Single-ply,SBD,M
Boys,89.81,2,Kevin Kanzaki,Argyle,88.81,210.92,140.61,206.38,557.92,Single-ply,SBD,M
Boys,89.81,3,Jordan Simpson,Carrollton Creekview,87.91,195.04,124.74,210.92,530.7,Single-ply,SBD,M
Boys,89.81,4,Charles Ijioma,Little Elm,89.27,204.12,127.01,199.58,530.7,Single-ply,SBD,M
Boys,89.81,5,Jeremy Mansur,Anna,87.72,149.69,113.4,165.56,428.64,Single-ply,SBD,M
Boys,89.81,6,Jesse De Leon,Blue Ridge,86.18,142.88,106.59,165.56,415.04,Single-ply,SBD,M
Boys,89.81,7,Coleton Spradley,Krum,87.54,140.61,97.52,174.63,412.77,Single-ply,SBD,M
Boys,89.81,8,Layton Lewis,Carrollton Creekview,87.91,142.88,88.45,151.95,383.29,Single-ply,SBD,M
Boys,89.81,9,Ryan Massey,Princeton,88.72,131.54,86.18,149.69,367.41,Single-ply,SBD,M
Boys,89.81,10,Blake Tredway,Anna,89.4,136.08,90.72,136.08,362.87,Single-ply,SBD,M
Boys,89.81,11,Ryan Burnett,Leonard,89.72,131.54,81.65,140.61,353.8,Single-ply,SBD,M
Boys,89.81,12,Isaiah Magana,Krum,87.18,104.33,81.65,158.76,344.73,Single-ply,SBD,M
Boys,89.81,13,Preston Eaves,Leonard,87.63,117.93,88.45,136.08,342.46,Single-ply,SBD,M
Boys,89.81,14,Chris Tracy,Anna,83.91,104.33,90.72,127.01,322.05,Single-ply,SBD,M
Boys,89.81,15,Colton Vibbert,Leonard,89.09,113.4,77.11,131.54,322.05,Single-ply,SBD,M
Boys,99.79,1,Tyrell Jeffries,Denison,95.71,249.48,170.1,294.84,714.41,Single-ply,SBD,M
Boys,99.79,2,Keith Ngondo,Little Elm,95.62,272.16,131.54,272.16,675.85,Single-ply,SBD,M
Boys,109.77,3,Grayson Chouffet,Prosper,99.88,192.78,102.06,183.7,478.54,Single-ply,SBD,M
Boys,99.79,4,JR Gipson,Krum,97.16,136.08,97.52,176.9,410.5,Single-ply,SBD,M
Boys,99.79,5,Hunter Hull,Sherman,94.26,147.42,106.59,145.15,399.16,Single-ply,SBD,M
Boys,99.79,6,Maclovio Garcia,Sherman,90.45,142.88,104.33,138.35,385.55,Single-ply,SBD,M
Boys,99.79,7,Cash Latta,Carrollton Creekview,92.44,136.08,102.06,147.42,385.55,Single-ply,SBD,M
Boys,99.79,8,Dylan Pruitt,Van Alstyne,97.98,129.27,77.11,165.56,371.95,Single-ply,SBD,M
Boys,99.79,DQ,Preston Pfeifer,Prosper,95.98,,,,,Single-ply,SBD,M
Boys,99.79,DQ,Dagan Myers,Carrollton Creekview,97.16,136.08,,,,Single-ply,SBD,M
Boys,109.77,DQ,Landon Collum,Van Alstyne,99.97,117.93,83.91,,,Single-ply,SBD,M
Boys,109.77,1,John Brannon,Prosper,103.42,197.31,145.15,215.46,557.92,Single-ply,SBD,M
Boys,109.77,2,Bailey Reid,Denison,104.96,226.8,142.88,188.24,557.92,Single-ply,SBD,M
Boys,109.77,3,Cason Riley,Leonard,101.24,188.24,136.08,208.65,532.97,Single-ply,SBD,M
Boys,109.77,4,Kelvin McKee,Little Elm,103.69,206.38,102.06,224.53,532.97,Single-ply,SBD,M
Boys,109.77,5,Matt Bramer,Van Alstyne,103.51,215.46,117.93,183.7,517.1,Single-ply,SBD,M
Boys,109.77,6,Hudson Barnes,Leonard,109.41,154.22,117.93,172.37,444.52,Single-ply,SBD,M
Boys,109.77,7,Bryce Hege,Argyle,109.77,158.76,88.45,183.7,430.91,Single-ply,SBD,M
Boys,109.77,8,Max Castillo,Melissa,107.32,154.22,108.86,156.49,419.57,Single-ply,SBD,M
Boys,109.77,9,Matt Kusano,Melissa,102.51,138.35,120.2,156.49,415.04,Single-ply,SBD,M
Boys,109.77,10,Brandon Miller,Bonham,106.41,170.1,95.25,149.69,415.04,Single-ply,SBD,M
Boys,109.77,11,Jeran Lewis,Anna,102.33,154.22,90.72,165.56,410.5,Single-ply,SBD,M
Boys,109.77,12,Justin Nichols,Sherman,100.79,147.42,95.25,149.69,392.36,Single-ply,SBD,M
Boys,109.77,13,Mason Parker,Carrollton Creekview,107.32,136.08,83.91,163.29,383.29,Single-ply,SBD,M
Boys,109.77,14,Garrett Holcombe,Denison,105.05,122.47,102.06,147.42,371.95,Single-ply,SBD,M
Boys,109.77,DQ,Antoine Robison,Denison,109.13,158.76,74.84,,,Single-ply,SBD,M
Boys,109.77,DQ,Jed Martin,Krum,109.23,145.15,,,,Single-ply,SBD,M
Boys,109.77,DQ,Carlos Montoya,Whitesboro,102.87,138.35,83.91,,,Single-ply,SBD,M
Boys,124.74,1,Landon Hallmark,Little Elm,110.4,265.35,142.88,267.62,675.85,Single-ply,SBD,M
Boys,124.74,2,Tristan Robinson,Whitesboro,111.31,204.12,140.61,208.65,553.38,Single-ply,SBD,M
Boys,124.74,3,Russell Carey,Whitesboro,114.94,197.31,111.13,215.46,523.9,Single-ply,SBD,M
Boys,124.74,4,Skylar Finnagin,Little Elm,110.22,199.58,92.99,197.31,489.88,Single-ply,SBD,M
Boys,124.74,5,Josh Schnitker,Sherman,119.57,163.29,129.27,197.31,489.88,Single-ply,SBD,M
Boys,124.74+,6,Colton Dale,Sherman,124.83,174.63,129.27,181.44,485.34,Single-ply,SBD,M
Boys,124.74,7,Keylynn Rushing,Princeton,115.03,149.69,108.86,204.12,462.66,Single-ply,SBD,M
Boys,124.74,8,Alfonso Viramontes,Melissa,113.94,151.95,97.52,158.76,408.23,Single-ply,SBD,M
Boys,124.74,9,Lewis Mantos,Prosper,114.67,136.08,102.06,167.83,405.97,Single-ply,SBD,M
Boys,124.74,10,Parker Mahan,Prosper,118.84,136.08,83.91,140.61,360.61,Single-ply,SBD,M
Boys,124.74,11,Matthew Kittridge,Carrollton Creekview,123.47,142.88,88.45,124.74,356.07,Single-ply,SBD,M
Boys,124.74,DQ,Justin Bates,Blue Ridge,117.21,,,,,Single-ply,SBD,M
Boys,124.74,DQ,Ben Ordaz,Whitesboro,117.21,,,,,Single-ply,SBD,M
Boys,124.74+,1,Derek Templeman,Princeton,131.09,244.94,147.42,240.4,632.76,Single-ply,SBD,M
Boys,124.74+,2,Kasey Misenheimer,Whitesboro,131.72,247.21,142.88,240.4,630.49,Single-ply,SBD,M
Boys,124.74+,3,Seth Miller,Carrollton Creekview,144.06,226.8,129.27,204.12,560.19,Single-ply,SBD,M
Boys,124.74+,4,Max Gafford,Blue Ridge,156.49,183.7,133.81,188.24,505.76,Single-ply,SBD,M
Boys,124.74+,5,Chris McKinney,Denison,162.3,149.69,102.06,226.8,478.54,Single-ply,SBD,M
Boys,124.74+,6,Michael Pruiett,Leonard,131.72,174.63,106.59,185.97,467.2,Single-ply,SBD,M
Boys,124.74+,7,Francisco Quintero,Carrollton Creekview,125.92,174.63,92.99,163.29,430.91,Single-ply,SBD,M
Boys,124.74+,8,Jadon Forbes,Denison,139.8,124.74,83.91,158.76,367.41,Single-ply,SBD,M
Boys,124.74+,DQ,Jonathan Clark #5,Honey Grove,147.24,,,,,Single-ply,SBD,M
Boys,124.74+,DQ,Mike Grimes,Princeton,152.95,,,,,Single-ply,SBD,M
Boys,124.74+,DQ,David Palmore,Sherman,155.22,142.88,97.52,,,Single-ply,SBD,M
Boys,,NS,Ryan Folk,Van Alstyne,,,,,,Single-ply,SBD,M
Boys,,NS,Cole English,Melissa,,,,,,Single-ply,SBD,M
Boys,,NS,Josh Archer,Celeste,,,,,,Single-ply,SBD,M
Boys,,NS,Alex Montoya,Blue Ridge,,,,,,Single-ply,SBD,M
Boys,,NS,Adam Dyer,Argyle,,,,,,Single-ply,SBD,M
Boys,,NS,Nick Golden,Argyle,,,,,,Single-ply,SBD,M
Boys,,NS,Cody McKamy,Whitesboro,,,,,,Single-ply,SBD,M
Boys,,NS,Andrew Shute,Anna,,,,,,Single-ply,SBD,M
Boys,,NS,Alec Kyle,Anna,,,,,,Single-ply,SBD,M
Boys,,NS,Raphael Jaramillo,Anna,,,,,,Single-ply,SBD,M
Boys,,NS,Travis Shouse,Anna,,,,,,Single-ply,SBD,M
Boys,,NS,Lake Wilson,Sherman,,,,,,Single-ply,SBD,M
Boys,,NS,Tre Adger,Sherman,,,,,,Single-ply,SBD,M
Boys,,NS,Kevin Wright,Sherman,,,,,,Single-ply,SBD,M
