Division,WeightClassKg,Place,Name,Team,BodyweightKg,Best3SquatKg,Best3BenchKg,Best3DeadliftKg,TotalKg,Equipment,Event,Sex,BirthDate
Boys,51.71,1,Jaime Rios #2,Big Lake Reagan County,51.17,154.22,83.91,163.29,401.43,Single-ply,SBD,M,
Boys,51.71,2,Carter Biggs,Midland Greenwood,50.62,90.72,47.63,86.18,224.53,Single-ply,SBD,M,
Boys,55.79,1,Zaniel Florez,Kermit,55.79,174.63,90.72,174.63,439.98,Single-ply,SBD,M,
Boys,55.79,2,Giovani Pablo,San Angelo Lake View,55.34,131.54,72.57,127.01,331.12,Single-ply,SBD,M,
Boys,59.87,1,Sergio Gonzalez,Big Lake Reagan County,59.87,161.03,92.99,172.37,426.38,Single-ply,SBD,M,
Boys,67.13,1,Avery Cruz,Midland Greenwood,64.68,183.7,97.52,190.51,471.74,Single-ply,SBD,M,
Boys,67.13,2,Jaylee Ibarra,Fort Stockton,65.32,190.51,113.4,167.83,471.74,Single-ply,SBD,M,
Boys,67.13,3,Ronnie Romero,Fort Stockton,66.68,176.9,108.86,181.44,467.2,Single-ply,SBD,M,
Boys,67.13,4,Alex Aguilar #2,Big Lake Reagan County,64.59,158.76,88.45,165.56,412.77,Single-ply,SBD,M,
Boys,67.13,5,Adan Dominguez,McCamey,64.59,151.95,95.25,154.22,401.43,Single-ply,SBD,M,
Boys,67.13,6,Christian Garcia,Fort Stockton,60.06,136.08,81.65,158.76,376.48,Single-ply,SBD,M,
Boys,67.13,7,Rene Orona,Monahans,66.95,108.86,74.84,138.35,322.05,Single-ply,SBD,M,
Boys,67.13,8,Keagan Roberson,Monahans,61.05,97.52,63.5,115.67,276.69,Single-ply,SBD,M,
Boys,67.13,DQ,Xavier Urias,McCamey,66.32,,,,,Single-ply,SBD,M,
Boys,74.84,1,David Guerrero,Big Lake Reagan County,72.21,240.4,131.54,183.7,555.65,Single-ply,SBD,M,
Boys,74.84,2,Gabriel Zubiate,Seminole,73.12,201.85,104.33,183.7,489.88,Single-ply,SBD,M,
Boys,74.84,3,Aaron Salazar,Seminole,73.3,183.7,124.74,172.37,480.81,Single-ply,SBD,M,
Boys,74.84,4,Jimmy Vazquez,Midland Greenwood,72.12,195.04,79.38,181.44,455.86,Single-ply,SBD,M,
Boys,74.84,5,Slade Edwards,Seminole,68.86,163.29,102.06,172.37,437.72,Single-ply,SBD,M,
Boys,74.84,6,Tanner Jones,Monahans,67.77,138.35,79.38,140.61,358.34,Single-ply,SBD,M,
Boys,74.84,7,Alexander Miranda,Monahans,70.22,113.4,54.43,136.08,303.91,Single-ply,SBD,M,
Boys,74.84,8,Marco Martínez,Alpine,72.35,95.25,54.43,111.13,260.82,Single-ply,SBD,M,
Boys,74.84,DQ,Christian Maledon,Pecos,71.21,,,,,Single-ply,SBD,M,
Boys,82.1,1,Christian DeLuna,Big Lake Reagan County,79.02,231.33,122.47,204.12,557.92,Single-ply,SBD,M,
Boys,82.1,2,Carter Christensen,San Angelo Lake View,81.1,197.31,147.42,204.12,548.85,Single-ply,SBD,M,
Boys,82.1,3,Alex Natera,Alpine,78.93,192.78,120.2,217.72,530.7,Single-ply,SBD,M,
Boys,82.1,4,Hunter Manning,Andrews,80.65,195.04,106.59,176.9,478.54,Single-ply,SBD,M,
Boys,82.1,5,Jovany Hernandez,Fort Stockton,77.02,145.15,97.52,154.22,396.89,Single-ply,SBD,M,
Boys,82.1,6,Ryan Villanueva,Pecos,79.83,117.93,70.31,136.08,324.32,Single-ply,SBD,M,
Boys,82.1,DQ,David Madrid,Pecos,76.48,156.49,99.79,,,Single-ply,SBD,M,
Boys,89.81,1,Esau Flores,Andrews,89.63,244.94,161.03,244.94,650.91,Single-ply,SBD,M,
Boys,89.81,2,Damon Casarez,Seminole,84.01,235.87,131.54,213.19,580.6,Single-ply,SBD,M,
Boys,89.81,3,Issahia Valenzuela,Big Lake Reagan County,87.54,231.33,102.06,217.72,551.11,Single-ply,SBD,M,
Boys,89.81,4,Tristan Pineda,McCamey,89.09,226.8,104.33,192.78,523.9,Single-ply,SBD,M,
Boys,89.81,5,Alex Wooten,Seminole,85.64,185.97,104.33,185.97,476.27,Single-ply,SBD,M,
Boys,89.81,6,Sylis Vidana,Monahans,87.45,174.63,111.13,179.17,464.93,Single-ply,SBD,M,
Boys,89.81,7,Justin Sanchez,Fort Stockton,88.54,149.69,131.54,181.44,462.66,Single-ply,SBD,M,
Boys,89.81,8,Brayden Sheller,Andrews,89.63,163.29,106.59,172.37,442.25,Single-ply,SBD,M,
Boys,89.81,9,Miguel Sanchez,McCamey,83.64,142.88,63.5,140.61,347,Single-ply,SBD,M,
Boys,89.81,DQ,Caden Johnson,McCamey,84.28,,,,,Single-ply,SBD,M,
Boys,99.79,1,Logan Sanders,San Angelo Lake View,98.61,217.72,142.88,249.48,610.08,Single-ply,SBD,M,
Boys,99.79,2,Aaron Olivas,Andrews,93.8,240.4,149.69,208.65,598.74,Single-ply,SBD,M,
Boys,99.79,3,Mikial Burrola,Kermit,93.35,222.26,138.35,199.58,560.19,Single-ply,SBD,M,
Boys,99.79,4,Petronillo Bustamante,Andrews,91.53,224.53,120.2,213.19,557.92,Single-ply,SBD,M,
Boys,99.79,5,Ryan Gooch,Alpine,95.25,215.46,120.2,183.7,519.36,Single-ply,SBD,M,
Boys,99.79,6,Jeremiah Talamantes,Seminole,96.52,199.58,95.25,170.1,464.93,Single-ply,SBD,M,
Boys,99.79,7,Damian Herrera,Monahans,95.35,163.29,111.13,188.24,462.66,Single-ply,SBD,M,
Boys,99.79,8,Jaybay Martinez,Big Lake Reagan County,98.16,174.63,90.72,181.44,446.79,Single-ply,SBD,M,
Boys,99.79,9,Gage Strain,Pecos,95.44,167.83,92.99,165.56,426.38,Single-ply,SBD,M,
Boys,99.79,10,Lucas Ordonez #1,Monahans,90.9,167.83,92.99,163.29,424.11,Single-ply,SBD,M,
Boys,99.79,11,Manuel Divila,Big Lake Reagan County,93.8,154.22,90.72,145.15,390.09,Single-ply,SBD,M,
Boys,99.79,12,Joe Salgado,Fort Stockton,96.71,113.4,79.38,129.27,322.05,Single-ply,SBD,M,
Boys,109.77,1,Kyle Coffey #1,Monahans,106.68,233.6,149.69,222.26,605.55,Single-ply,SBD,M,
Boys,109.77,2,Chris Correa,Brownfield,108.41,240.4,149.69,208.65,598.74,Single-ply,SBD,M,
Boys,109.77,3,Jacob Alston,Monahans,105.05,172.37,108.86,197.31,478.54,Single-ply,SBD,M,
Boys,109.77,4,Kenneth Ramsey,Monahans,102.24,145.15,97.52,190.51,433.18,Single-ply,SBD,M,
Boys,109.77,5,Drew Coker,Monahans,100.06,172.37,86.18,163.29,421.84,Single-ply,SBD,M,
Boys,109.77,6,Candelario Saldana,McCamey,103.33,147.42,68.04,131.54,347,Single-ply,SBD,M,
Boys,124.74,1,Darius Pando,Kermit,117.12,272.16,165.56,235.87,673.58,Single-ply,SBD,M,
Boys,124.74,2,Jayson Pagan,McCamey,110.31,249.48,138.35,215.46,603.28,Single-ply,SBD,M,
Boys,124.74,3,Gerry Salazar,McCamey,112.94,242.67,133.81,224.53,601.01,Single-ply,SBD,M,
Boys,124.74,4,Caleb Alexander,Seminole,113.94,231.33,131.54,215.46,578.33,Single-ply,SBD,M,
Boys,124.74,5,Juan Ortiz,San Angelo Lake View,122.74,224.53,133.81,208.65,566.99,Single-ply,SBD,M,
Boys,124.74,6,Isaiah Garcia,McCamey,114.58,242.67,111.13,206.38,560.19,Single-ply,SBD,M,
Boys,124.74,7,Cody High,San Angelo Lake View,124.19,219.99,117.93,215.46,553.38,Single-ply,SBD,M,
Boys,124.74,8,Roberto Ramirez,Fort Stockton,122.02,204.12,127.01,161.03,492.15,Single-ply,SBD,M,
Boys,124.74,9,Octavio Cabalero,Andrews,111.4,190.51,102.06,195.04,487.61,Single-ply,SBD,M,
Boys,124.74,10,Moises Rodriguez,Monahans,113.4,163.29,95.25,174.63,433.18,Single-ply,SBD,M,
Boys,124.74+,1,Albert Aguilar,Pecos,152.41,283.5,208.65,217.72,709.87,Single-ply,SBD,M,
Boys,124.74+,2,Ethan Sanchez,San Angelo Lake View,142.88,247.21,174.63,226.8,648.64,Single-ply,SBD,M,
Boys,124.74+,3,Luis Mendoza,Fort Stockton,127.91,204.12,133.81,151.95,489.88,Single-ply,SBD,M,
Boys,124.74+,4,Antonio Ronquillo,San Angelo Lake View,145.33,181.44,140.61,165.56,487.61,Single-ply,SBD,M,
Boys,124.74+,5,Jacob Payne,Monahans,128.73,167.83,86.18,154.22,408.23,Single-ply,SBD,M,
Boys,124.74+,DQ,Sean Castillo,Brownfield,179.17,,,,,Single-ply,SBD,M,
Boys,,NS,Ángel Sánchez #3,Pecos,,,,,,Single-ply,SBD,M,
Boys,,NS,Andres Pando,Pecos,,,,,,Single-ply,SBD,M,
Boys,,NS,Noel Perez,Big Lake Reagan County,,,,,,Single-ply,SBD,M,
Boys,,NS,Eli Hernandez,Big Lake Reagan County,,,,,,Single-ply,SBD,M,
Boys,,NS,Juan Saucedo,Big Lake Reagan County,,,,,,Single-ply,SBD,M,
Boys,,NS,Jaxon Washington,Seminole,,,,,,Single-ply,SBD,M,
Boys,,NS,Rikter Connally,Seminole,,,,,,Single-ply,SBD,M,
Boys,,NS,Irvin Delgado,Seminole,,,,,,Single-ply,SBD,M,
Boys,,NS,Miguel Carrasco,Pecos,,,,,,Single-ply,SBD,M,
Boys,,NS,Everett McGhee,Pecos,,,,,,Single-ply,SBD,M,
Boys,,NS,Jesus Lopez,Andrews,,,,,,Single-ply,SBD,M,
Boys,,NS,Ramiro Lopez,Andrews,,,,,,Single-ply,SBD,M,
Boys,,NS,Alejandro Leyva,Kermit,,,,,,Single-ply,SBD,M,
Boys,,NS,Bradley Peralta,Kermit,,,,,,Single-ply,SBD,M,
Boys,,NS,Joel Garcia,Kermit,,,,,,Single-ply,SBD,M,
Boys,,NS,Angelo Lopez,Kermit,,,,,,Single-ply,SBD,M,
Boys,,NS,Jerry Perez,Kermit,,,,,,Single-ply,SBD,M,
Boys,,NS,Jesus Villegas,Kermit,,,,,,Single-ply,SBD,M,
Boys,,NS,Kevin Townsend,San Angelo Lake View,,,,,,Single-ply,SBD,M,
Boys,,NS,Edgar Flores,Fort Stockton,,,,,,Single-ply,SBD,M,
Boys,,NS,Jaydrien Ramirez,Fort Stockton,,,,,,Single-ply,SBD,M,
Boys,,NS,Clayton Foster,Fort Stockton,,,,,,Single-ply,SBD,M,
Boys,,NS,Adrian Valdez,Fort Stockton,,,,,,Single-ply,SBD,M,
Boys,,NS,Daniel Renteria,Fort Stockton,,,,,,Single-ply,SBD,M,
