Division,WeightClassKg,Place,Name,Team,BodyweightKg,Best3SquatKg,Best3BenchKg,Best3DeadliftKg,TotalKg,Equipment,Event,Sex
Varsity,55.79,1,Thomas Soto,Corpus Christi Calallen,51.94,167.83,90.72,204.12,462.66,Single-ply,SBD,M
Varsity,55.79,2,Robert Chapa,Gregory-Portland,51.94,181.44,90.72,185.97,458.13,Single-ply,SBD,M
Varsity,51.71,3,Bruizer Del Bosque,Bishop,48.72,151.95,83.91,156.49,392.36,Single-ply,SBD,M
Varsity,51.71,4,Robert Ramos,Corpus Christi Tuloso-Midway,50.44,136.08,68.04,129.27,333.39,Single-ply,SBD,M
Varsity,51.71,5,Mauro Garcia,Port Lavaca Calhoun,50.26,108.86,70.31,122.47,301.64,Single-ply,SBD,M
Varsity,51.71,6,Garrett Wildman,Banquete,51.35,106.59,56.7,117.93,281.23,Single-ply,SBD,M
Varsity,51.71,7,Bobby Bourlon,Banquete,50.8,106.59,65.77,95.25,267.62,Single-ply,SBD,M
Varsity,55.79,1,Daniel Chapa,Gregory-Portland,55.07,179.17,99.79,181.44,460.4,Single-ply,SBD,M
Varsity,55.79,2,Jonathan Starks,Banquete,55.79,140.61,83.91,158.76,383.29,Single-ply,SBD,M
Varsity,55.79,3,Gilbert Sanchez,San Diego,52.34,149.69,86.18,142.88,378.75,Single-ply,SBD,M
Varsity,55.79,4,Rj Hinojosa,Banquete,54.79,147.42,77.11,133.81,358.34,Single-ply,SBD,M
Varsity,59.87,5,Edward Davidson,Alice,55.88,120.2,74.84,145.15,340.19,Single-ply,SBD,M
Varsity,55.79,6,Dustin Padilla,Sinton,54.61,102.06,74.84,136.08,312.98,Single-ply,SBD,M
Varsity,55.79,DQ,Ricky Hinojosa,Port Lavaca Calhoun,55.25,129.27,,,,Single-ply,SBD,M
Varsity,59.87,1,Travis Charles,Bishop,59.87,208.65,102.06,208.65,519.36,Single-ply,SBD,M
Varsity,59.87,2,Michael Casarez,Three Rivers,58.69,197.31,95.25,192.78,485.34,Single-ply,SBD,M
Varsity,59.87,3,Jacob Almaguer,George West,59.78,188.24,115.67,179.17,483.08,Single-ply,SBD,M
Varsity,67.13,4,Jeff Kearns,Gregory-Portland,59.96,176.9,99.79,185.97,462.66,Single-ply,SBD,M
Varsity,67.13,5,Rico Rodriguez,San Diego,60.1,174.63,111.13,174.63,460.4,Single-ply,SBD,M
Varsity,59.87,6,Ryan Yanez,Gregory-Portland,58.24,165.56,113.4,176.9,455.86,Single-ply,SBD,M
Varsity,59.87,7,Rene Rubalcava,San Diego,59.87,174.63,102.06,163.29,439.98,Single-ply,SBD,M
Varsity,59.87,8,Josue Gonzalez,Corpus Christi Calallen,59.33,149.69,83.91,158.76,392.36,Single-ply,SBD,M
Varsity,67.13,9,Justin Gonzalez,San Diego,60.06,165.56,90.72,136.08,392.36,Single-ply,SBD,M
Varsity,67.13,10,Ricky Benavides,Banquete,60.06,147.42,86.18,154.22,387.82,Single-ply,SBD,M
Varsity,59.87,11,Robert Seward,Corpus Christi Calallen,58.15,142.88,83.91,158.76,385.55,Single-ply,SBD,M
Varsity,59.87,12,Cole Weaver,Port Lavaca Calhoun,59.69,127.01,77.11,127.01,331.12,Single-ply,SBD,M
Varsity,59.87,13,Dustin Thomas,Three Rivers,57.06,113.4,65.77,142.88,322.05,Single-ply,SBD,M
Varsity,67.13,1,JJ Gonzales,Gregory-Portland,66.32,256.28,142.88,222.26,621.42,Single-ply,SBD,M
Varsity,67.13,2,Phong Tran,Rockport-Fulton,65.32,188.24,124.74,204.12,517.1,Single-ply,SBD,M
Varsity,67.13,3,Matt Buentello,Corpus Christi Tuloso-Midway,66.59,190.51,104.33,199.58,494.42,Single-ply,SBD,M
Varsity,67.13,4,Arnold Bueno,Banquete,62.69,165.56,104.33,145.15,415.04,Single-ply,SBD,M
Varsity,67.13,5,Christian Diaz,Ingleside,62.51,142.88,83.91,174.63,401.43,Single-ply,SBD,M
Varsity,67.13,6,Alex Fahrenthold,Rockport-Fulton,66.95,113.4,70.31,138.35,322.05,Single-ply,SBD,M
Varsity,74.84,DQ,Tai Temple,Rockport-Fulton,67.31,,,,,Single-ply,SBD,M
Varsity,67.13,DQ,Beto Medrano,Kingsville King,62.87,,,,,Single-ply,SBD,M
Varsity,67.13,DQ,Marquis Barrolle,Ingleside,61.69,176.9,,,,Single-ply,SBD,M
Varsity,67.13,DQ,Michael Elizondo,Alice,64.95,,,,,Single-ply,SBD,M
Varsity,67.13,DQ,Jared Reilly,Corpus Christi Calallen,66.13,179.17,95.25,,,Single-ply,SBD,M
Varsity,74.84,1,Andy Mohl,Corpus Christi Tuloso-Midway,73.84,219.99,138.35,215.46,573.79,Single-ply,SBD,M
Varsity,74.84,2,Adam Guerrero #1,George West,68.95,229.06,115.67,204.12,548.85,Single-ply,SBD,M
Varsity,74.84,3,Paul Villarreal,Sinton,72.03,183.7,111.13,219.99,514.83,Single-ply,SBD,M
Varsity,74.84,4,Nathan McRae,Ingleside,73.66,181.44,120.2,181.44,483.08,Single-ply,SBD,M
Varsity,74.84,5,Beto Chavarria,Alice,71.03,174.63,113.4,181.44,469.47,Single-ply,SBD,M
Varsity,74.84,6,Walley Martinez,Sinton,73.57,156.49,124.74,183.7,464.93,Single-ply,SBD,M
Varsity,74.84,7,Phillip Valadez,Gregory-Portland,72.57,147.42,106.59,179.17,433.18,Single-ply,SBD,M
Varsity,74.84,DQ,Andrew Kyrisch,Ingleside,74.3,154.22,,,,Single-ply,SBD,M
Varsity,74.84,DQ,Jacob Adame,Ingleside,68.95,181.44,,,,Single-ply,SBD,M
Varsity,74.84,DQ,Jose Gonzalez #15,Alice,73.75,,,,,Single-ply,SBD,M
Varsity,82.1,1,Marty Saenz,San Diego,81.56,258.55,127.01,251.74,637.3,Single-ply,SBD,M
Varsity,82.1,2,Gabriel Longoria,Corpus Christi Calallen,82.1,265.35,142.88,229.06,637.3,Single-ply,SBD,M
Varsity,82.1,3,Kameron Handy,Corpus Christi Tuloso-Midway,81.92,240.4,145.15,226.8,612.35,Single-ply,SBD,M
Varsity,89.81,4,Devin Lanier,Gregory-Portland,82.28,249.48,158.76,204.12,612.35,Single-ply,SBD,M
Varsity,82.1,5,Steven Leal,Corpus Christi Tuloso-Midway,75.84,229.06,129.27,217.72,576.06,Single-ply,SBD,M
Varsity,82.1,6,Josh Perez,Sinton,79.74,197.31,136.08,215.46,548.85,Single-ply,SBD,M
Varsity,82.1,7,Leo Adams,Alice,81.56,195.04,145.15,190.51,530.7,Single-ply,SBD,M
Varsity,89.81,8,Andrew Reyes,Rockport-Fulton,82.19,199.58,127.01,201.85,528.44,Single-ply,SBD,M
Varsity,82.1,9,Jacob Martinez,Kingsville King,79.38,170.1,127.01,190.51,487.61,Single-ply,SBD,M
Varsity,82.1,10,Robert Leal,Corpus Christi Tuloso-Midway,81.65,199.58,113.4,165.56,478.54,Single-ply,SBD,M
Varsity,89.81,11,Robert Moctezuma,San Diego,82.33,181.44,90.72,163.29,435.45,Single-ply,SBD,M
Varsity,82.1,DQ,Brandon Castillo,Corpus Christi Calallen,77.93,206.38,,,,Single-ply,SBD,M
Varsity,89.81,1,Javiel Rojas,Kingsville King,83.37,240.4,138.35,256.28,635.03,Single-ply,SBD,M
Varsity,89.81,2,Kirk Salinas,Banquete,83.82,238.14,138.35,219.99,596.47,Single-ply,SBD,M
Varsity,89.81,3,Enrique Olachia,Port Lavaca Calhoun,89.54,217.72,131.54,231.33,580.6,Single-ply,SBD,M
Varsity,89.81,4,Reno Perez,San Diego,84.64,233.6,117.93,219.99,571.53,Single-ply,SBD,M
Varsity,89.81,5,Philip Barrientos,Bishop,84.91,181.44,120.2,195.04,496.68,Single-ply,SBD,M
Varsity,89.81,6,Jacob Hernandez,Sinton,86,163.29,111.13,210.92,485.34,Single-ply,SBD,M
Varsity,89.81,7,David Perez,Bishop,83.73,181.44,106.59,192.78,480.81,Single-ply,SBD,M
Varsity,89.81,8,Jesse Cedillo,Banquete,88.09,197.31,92.99,183.7,474,Single-ply,SBD,M
Varsity,89.81,9,Tony Zapata,Alice,86.45,176.9,104.33,181.44,462.66,Single-ply,SBD,M
Varsity,89.81,10,Jesse Gonzales,Kingsville King,83.46,165.56,95.25,170.1,430.91,Single-ply,SBD,M
Varsity,89.81,DQ,Jose Saucedo,Port Lavaca Calhoun,83.91,217.72,,,,Single-ply,SBD,M
Varsity,89.81,DQ,Alex Tanguma,Corpus Christi Calallen,87.09,233.6,,,,Single-ply,SBD,M
Varsity,99.79,1,Andres Castellanos,Corpus Christi Tuloso-Midway,94.71,294.84,154.22,267.62,716.68,Single-ply,SBD,M
Varsity,99.79,2,Luis Lopez #3,San Diego,93.08,301.64,151.95,244.94,698.53,Single-ply,SBD,M
Varsity,99.79,3,Zach Garcia,Alice,98.25,249.48,154.22,244.94,648.64,Single-ply,SBD,M
Varsity,99.79,4,John Herrera,Banquete,95.71,238.14,147.42,222.26,607.81,Single-ply,SBD,M
Varsity,99.79,5,Chris Castillo,Corpus Christi Tuloso-Midway,92.26,210.92,124.74,215.46,551.11,Single-ply,SBD,M
Varsity,99.79,6,Darren Pham,Rockport-Fulton,96.52,219.99,124.74,199.58,544.31,Single-ply,SBD,M
Varsity,99.79,7,Jonathan Chavana,Port Lavaca Calhoun,97.98,204.12,127.01,181.44,512.56,Single-ply,SBD,M
Varsity,99.79,8,Joseph Avitia,Ingleside,93.89,204.12,129.27,174.63,508.02,Single-ply,SBD,M
Varsity,99.79,9,Bryan Chesser,George West,98.97,204.12,120.2,161.03,485.34,Single-ply,SBD,M
Varsity,99.79,10,Jesse Gomez,Kingsville King,93.89,183.7,108.86,183.7,476.27,Single-ply,SBD,M
Varsity,99.79,11,Carlos Hernandez #12,Corpus Christi West Oso,95.89,204.12,120.2,151.95,476.27,Single-ply,SBD,M
Varsity,99.79,12,Justin Salinas,Kingsville King,94.8,181.44,117.93,174.63,474,Single-ply,SBD,M
Varsity,99.79,13,Brendon Breland,Banquete,91.26,183.7,88.45,174.63,446.79,Single-ply,SBD,M
Varsity,99.79,DQ,Jarred Dement,Gregory-Portland,94.71,,,,,Single-ply,SBD,M
Varsity,109.77,1,D'Marco Smith,Corpus Christi Tuloso-Midway,107.95,285.76,167.83,231.33,684.92,Single-ply,SBD,M
Varsity,109.77,2,Matt Salazar,Corpus Christi Tuloso-Midway,102.51,249.48,149.69,217.72,616.89,Single-ply,SBD,M
Varsity,109.77,3,Taylor Nolte,Gregory-Portland,103.6,233.6,145.15,235.87,614.62,Single-ply,SBD,M
Varsity,109.77,4,Estaban Resendez,Alice,100.97,226.8,124.74,235.87,587.4,Single-ply,SBD,M
Varsity,109.77,5,Michael Wiser,Corpus Christi Calallen,108.05,215.46,131.54,235.87,582.87,Single-ply,SBD,M
Varsity,109.77,6,Brodie Ruiz,Three Rivers,108.95,238.14,131.54,201.85,571.53,Single-ply,SBD,M
Varsity,109.77,7,Jamie Gutierrez,Port Lavaca Calhoun,104.69,226.8,142.88,197.31,566.99,Single-ply,SBD,M
Varsity,109.77,8,Scout Betz,Gregory-Portland,108.77,233.6,115.67,215.46,564.72,Single-ply,SBD,M
Varsity,109.77,9,Alex Garcia #6,San Diego,106.87,208.65,124.74,195.04,528.44,Single-ply,SBD,M
Varsity,109.77,10,Cordell Eshols,Ingleside,103.69,215.46,129.27,174.63,519.36,Single-ply,SBD,M
Varsity,109.77,11,Matthew Ferrall,Rockport-Fulton,100.61,206.38,124.74,179.17,510.29,Single-ply,SBD,M
Varsity,109.77,12,Michael Rodriguez #4,Kingsville King,101.88,174.63,136.08,192.78,503.49,Single-ply,SBD,M
Varsity,109.77,13,Juan Rodriguez,Three Rivers,102.97,183.7,113.4,174.63,471.74,Single-ply,SBD,M
Varsity,109.77,14,John Acuna,Kingsville King,102.51,151.95,99.79,183.7,435.45,Single-ply,SBD,M
Varsity,109.77,DQ,Truman Jenkins,Rockport-Fulton,104.51,183.7,,,,Single-ply,SBD,M
Varsity,124.74,DQ,Matt Watson #2,Corpus Christi Tuloso-Midway,109.95,204.12,138.35,,,Single-ply,SBD,M
Varsity,124.74,1,Blake Dahlberg,Gregory-Portland,110.59,240.4,145.15,224.53,610.08,Single-ply,SBD,M
Varsity,124.74,2,Richie Salinas,Kingsville King,118.66,208.65,181.44,188.24,578.33,Single-ply,SBD,M
Varsity,124.74,3,Danny Olvalle,Port Lavaca Calhoun,114.21,231.33,136.08,195.04,562.45,Single-ply,SBD,M
Varsity,124.74,4,Eli Garcia,George West,121.38,215.46,111.13,158.76,485.34,Single-ply,SBD,M
Varsity,124.74,5,Toshido Paz,Sinton,119.02,172.37,140.61,163.29,476.27,Single-ply,SBD,M
Varsity,124.74,6,Mathew Moya,Corpus Christi West Oso,112.4,142.88,102.06,181.44,426.38,Single-ply,SBD,M
Varsity,124.74,DQ,Conner Bearden,Ingleside,123.92,,,,,Single-ply,SBD,M
Varsity,124.74+,DQ,Ryan Gutierrez,Rockport-Fulton,124.96,,,,,Single-ply,SBD,M
Varsity,124.74,DQ,Matthew Grimaldo,George West,124.19,206.38,,,,Single-ply,SBD,M
Varsity,124.74,DQ,Warren Oaks,Alice,119.11,188.24,131.54,,,Single-ply,SBD,M
Varsity,124.74+,1,Miguel Estrada,Rockport-Fulton,142.25,260.82,181.44,267.62,709.87,Single-ply,SBD,M
Varsity,124.74+,2,Steven Rodriguez,Corpus Christi Calallen,133.17,272.16,140.61,217.72,630.49,Single-ply,SBD,M
Varsity,124.74+,3,Dylan Strickland,Corpus Christi Calallen,133.27,238.14,156.49,215.46,610.08,Single-ply,SBD,M
Varsity,124.74+,4,Mario Alaniz,San Diego,128.64,231.33,145.15,226.8,603.28,Single-ply,SBD,M
Varsity,124.74+,5,Bryan Tachatchula,Port Lavaca Calhoun,142.52,222.26,154.22,199.58,576.06,Single-ply,SBD,M
Varsity,124.74+,6,Luis Lopez #1,Kingsville King,136.17,197.31,97.52,204.12,498.95,Single-ply,SBD,M
Varsity,124.74+,7,Jacob Ortiz,Agua Dulce,129.82,208.65,92.99,192.78,494.42,Single-ply,SBD,M
Varsity,124.74+,8,Josh Sambrano,Corpus Christi West Oso,128.55,115.67,111.13,197.31,424.11,Single-ply,SBD,M
Junior Varsity,51.71,1,Randy Trevino,Gregory-Portland,48.81,106.59,68.04,117.93,292.57,Single-ply,SBD,M
Junior Varsity,55.79,2,Carlos Weckmann,Corpus Christi Tuloso-Midway,51.89,115.67,56.7,115.67,288.03,Single-ply,SBD,M
Junior Varsity,51.71,3,Chris Lopez,Three Rivers,50.71,111.13,52.16,102.06,265.35,Single-ply,SBD,M
Junior Varsity,51.71,4,Amit Patel,Three Rivers,50.44,88.45,52.16,102.06,242.67,Single-ply,SBD,M
Junior Varsity,51.71,DQ,Austin Ramos,Corpus Christi Tuloso-Midway,33.48,,,,,Single-ply,SBD,M
Junior Varsity,55.79,1,Lucas Glew,Beeville Jones,55.43,151.95,83.91,131.54,367.41,Single-ply,SBD,M
Junior Varsity,59.87,2,Bradley Mickey,Gregory-Portland,55.97,115.67,68.04,149.69,333.39,Single-ply,SBD,M
Junior Varsity,55.79,3,JD Rodriguez,Ingleside,54.98,129.27,74.84,122.47,326.59,Single-ply,SBD,M
Junior Varsity,59.87,4,Brian Ruiz,Corpus Christi Calallen,55.88,99.79,61.23,120.2,281.23,Single-ply,SBD,M
Junior Varsity,55.79,5,Andy Torres,Gregory-Portland,53.34,97.52,54.43,115.67,267.62,Single-ply,SBD,M
Junior Varsity,55.79,6,Cody Brown #7,George West,52.44,99.79,58.97,95.25,254.01,Single-ply,SBD,M
Junior Varsity,55.79,7,Ricky Gamez,San Diego,54.07,70.31,31.75,113.4,215.46,Single-ply,SBD,M
Junior Varsity,67.13,1,Michael Rosas,Beeville Jones,60.06,131.54,95.25,172.37,399.16,Single-ply,SBD,M
Junior Varsity,59.87,2,Ben Heard,Corpus Christi Calallen,56.7,133.81,72.57,161.03,367.41,Single-ply,SBD,M
Junior Varsity,59.87,3,Colton Hahn,Port Lavaca Calhoun,58.79,131.54,63.5,122.47,317.51,Single-ply,SBD,M
Junior Varsity,59.87,4,Brandon Clark,Ingleside,56.61,131.54,56.7,127.01,315.25,Single-ply,SBD,M
Junior Varsity,59.87,5,David Gutierrez,Alice,56.61,99.79,58.97,124.74,283.5,Single-ply,SBD,M
Junior Varsity,59.87,6,Sam Day,Rockport-Fulton,59.15,106.59,65.77,102.06,274.42,Single-ply,SBD,M
Junior Varsity,59.87,7,Alex Rodriguez #3,Corpus Christi Calallen,59.87,102.06,43.09,117.93,263.08,Single-ply,SBD,M
Junior Varsity,67.13,8,Jonathan Soto,Ingleside,60.06,74.84,61.23,120.2,256.28,Single-ply,SBD,M
Junior Varsity,59.87,9,Miguel Vasquez,Corpus Christi Calallen,59.69,102.06,45.36,106.59,254.01,Single-ply,SBD,M
Junior Varsity,59.87,DQ,Jake Gamez,Beeville Jones,56.15,,,,,Single-ply,SBD,M
Junior Varsity,67.13,1,Miguel Salazar,Corpus Christi Tuloso-Midway,65.32,154.22,106.59,156.49,417.3,Single-ply,SBD,M
Junior Varsity,67.13,2,Randall Saenz,Three Rivers,66.5,158.76,74.84,165.56,399.16,Single-ply,SBD,M
Junior Varsity,67.13,3,AJ Jiminian,Alice,60.78,142.88,83.91,154.22,381.02,Single-ply,SBD,M
Junior Varsity,67.13,4,Justin Sobczak,Corpus Christi Tuloso-Midway,67.13,149.69,77.11,149.69,376.48,Single-ply,SBD,M
Junior Varsity,67.13,5,Quinton Moreno,Gregory-Portland,62.23,131.54,83.91,154.22,369.68,Single-ply,SBD,M
Junior Varsity,67.13,6,Albert Salinas,Bishop,60.6,145.15,83.91,136.08,365.14,Single-ply,SBD,M
Junior Varsity,67.13,7,Jared Garcia,Corpus Christi Calallen,66.41,147.42,77.11,140.61,365.14,Single-ply,SBD,M
Junior Varsity,67.13,8,Zack Soliz,Alice,66.77,142.88,83.91,124.74,351.53,Single-ply,SBD,M
Junior Varsity,67.13,9,Sebastian Canales,Ingleside,63.5,136.08,79.38,131.54,347,Single-ply,SBD,M
Junior Varsity,67.13,10,Montana Garcia,Bishop,61.87,133.81,72.57,138.35,344.73,Single-ply,SBD,M
Junior Varsity,67.13,11,Nathan Thiry,Yoakum,62.78,120.2,83.91,140.61,344.73,Single-ply,SBD,M
Junior Varsity,67.13,12,Balta Ramirez,San Diego,66.04,117.93,68.04,140.61,326.59,Single-ply,SBD,M
Junior Varsity,67.13,13,Bryce Kneip,Corpus Christi Calallen,62.6,117.93,81.65,111.13,310.71,Single-ply,SBD,M
Junior Varsity,67.13,14,Jonathon Calzada,Gregory-Portland,61.14,104.33,61.23,136.08,301.64,Single-ply,SBD,M
Junior Varsity,67.13,15,Patrick Torres,Ingleside,63.59,90.72,77.11,131.54,299.37,Single-ply,SBD,M
Junior Varsity,67.13,16,David Lopez,Beeville Jones,63.23,104.33,49.9,102.06,256.28,Single-ply,SBD,M
Junior Varsity,67.13,DQ,Mando Sanchez,Alice,66.04,,,,,Single-ply,SBD,M
Junior Varsity,74.84,1,Brandon Sendejo,Alice,71.03,172.37,111.13,176.9,460.4,Single-ply,SBD,M
Junior Varsity,74.84,2,Lorenzo Landin,Gregory-Portland,73.57,161.03,102.06,195.04,458.13,Single-ply,SBD,M
Junior Varsity,74.84,3,Dillon Torres,Beeville Jones,69.4,163.29,111.13,181.44,455.86,Single-ply,SBD,M
Junior Varsity,74.84,4,Victor Ta,Port Lavaca Calhoun,70.94,181.44,81.65,188.24,451.32,Single-ply,SBD,M
Junior Varsity,74.84,5,Drew Ortiz,Port Lavaca Calhoun,72.76,154.22,102.06,188.24,444.52,Single-ply,SBD,M
Junior Varsity,74.84,6,Will Caraker,Gregory-Portland,69.85,149.69,104.33,185.97,439.98,Single-ply,SBD,M
Junior Varsity,74.84,7,Austin Lofthouse,Corpus Christi Tuloso-Midway,71.85,151.95,86.18,195.04,433.18,Single-ply,SBD,M
Junior Varsity,74.84,8,Nathan Sanchez #3,Corpus Christi Calallen,68.04,174.63,81.65,174.63,430.91,Single-ply,SBD,M
Junior Varsity,74.84,9,Austin Castillo,Corpus Christi Calallen,71.49,149.69,92.99,188.24,430.91,Single-ply,SBD,M
Junior Varsity,82.1,10,Jacob Flores,Beeville Jones,75.02,179.17,83.91,158.76,421.84,Single-ply,SBD,M
Junior Varsity,74.84,11,Gabriel Casarez,Port Lavaca Calhoun,73.57,156.49,88.45,165.56,410.5,Single-ply,SBD,M
Junior Varsity,74.84,12,Phillip Garcia,Alice,68.49,147.42,74.84,165.56,387.82,Single-ply,SBD,M
Junior Varsity,82.1,13,Patrick Jarratt,Three Rivers,75.02,158.76,58.97,170.1,387.82,Single-ply,SBD,M
Junior Varsity,74.84,14,Ricky de la Paz,San Diego,72.94,127.01,79.38,158.76,365.14,Single-ply,SBD,M
Junior Varsity,74.84,15,Zenon Sanchez,Three Rivers,67.72,136.08,72.57,142.88,351.53,Single-ply,SBD,M
Junior Varsity,74.84,16,Stevie Velasquez,Corpus Christi Calallen,70.67,115.67,92.99,138.35,347,Single-ply,SBD,M
Junior Varsity,74.84,17,Keller Hughes,Three Rivers,68.95,120.2,72.57,136.08,328.85,Single-ply,SBD,M
Junior Varsity,74.84,18,Matthew Kimberling,Rockport-Fulton,73.48,108.86,72.57,129.27,310.71,Single-ply,SBD,M
Junior Varsity,74.84,19,Ruben Salazar,Rockport-Fulton,68.04,106.59,61.23,122.47,290.3,Single-ply,SBD,M
Junior Varsity,74.84,20,Dustin Flagg,Yoakum,69.4,97.52,61.23,106.59,265.35,Single-ply,SBD,M
Junior Varsity,74.84,DQ,Steve Garza,Ingleside,72.3,163.29,,,,Single-ply,SBD,M
Junior Varsity,82.1,DQ,Seth Wright,Ingleside,74.93,129.27,,,,Single-ply,SBD,M
Junior Varsity,82.1,1,Fernando Flores,Corpus Christi Tuloso-Midway,81.19,188.24,111.13,217.72,517.1,Single-ply,SBD,M
Junior Varsity,89.81,2,Derrion Crowley,Port Lavaca Calhoun,82.28,154.22,115.67,170.1,439.98,Single-ply,SBD,M
Junior Varsity,82.1,3,Roy Saenz,Bishop,81.65,163.29,92.99,179.17,435.45,Single-ply,SBD,M
Junior Varsity,82.1,4,Jeremiah Keever,Bishop,80.83,183.7,77.11,167.83,428.64,Single-ply,SBD,M
Junior Varsity,82.1,5,Gabe Jimenez,Gregory-Portland,75.98,156.49,88.45,172.37,417.3,Single-ply,SBD,M
Junior Varsity,82.1,6,Francisco Lopez,Yoakum,75.66,147.42,79.38,151.95,378.75,Single-ply,SBD,M
Junior Varsity,82.1,7,Esteban Morales,Port Lavaca Calhoun,79.38,151.95,83.91,133.81,369.68,Single-ply,SBD,M
Junior Varsity,82.1,8,Michael Boudreaux,Port Lavaca Calhoun,78.02,133.81,86.18,147.42,367.41,Single-ply,SBD,M
Junior Varsity,82.1,9,Richard Cortez,Corpus Christi West Oso,80.38,127.01,83.91,147.42,358.34,Single-ply,SBD,M
Junior Varsity,82.1,10,Roland Gutierrez,Corpus Christi West Oso,76.48,133.81,79.38,138.35,351.53,Single-ply,SBD,M
Junior Varsity,82.1,11,Matthew Cantu,San Diego,80.65,120.2,74.84,142.88,337.93,Single-ply,SBD,M
Junior Varsity,82.1,12,Aaron Meineke,Three Rivers,80.29,111.13,74.84,129.27,315.25,Single-ply,SBD,M
Junior Varsity,82.1,DQ,Quinton Baria,Corpus Christi Tuloso-Midway,78.47,,,,,Single-ply,SBD,M
Junior Varsity,82.1,DQ,Bj Gonzalez,Alice,75.75,129.27,,,,Single-ply,SBD,M
Junior Varsity,89.81,1,AJ Alvarez,Bishop,87.45,206.38,117.93,219.99,544.31,Single-ply,SBD,M
Junior Varsity,89.81,2,Nathan Morin,Three Rivers,89.72,226.8,108.86,208.65,544.31,Single-ply,SBD,M
Junior Varsity,89.81,3,Ben Burkett,Bishop,87.27,190.51,104.33,174.63,469.47,Single-ply,SBD,M
Junior Varsity,89.81,4,Chris Izaguirre,Gregory-Portland,85.55,167.83,83.91,204.12,455.86,Single-ply,SBD,M
Junior Varsity,89.81,5,Weston Carroll,Three Rivers,87.45,183.7,108.86,161.03,453.59,Single-ply,SBD,M
Junior Varsity,89.81,6,Riley Richardson,Gregory-Portland,85.09,149.69,99.79,176.9,426.38,Single-ply,SBD,M
Junior Varsity,89.81,7,Zach Gilkerson,Rockport-Fulton,82.64,156.49,92.99,151.95,401.43,Single-ply,SBD,M
Junior Varsity,89.81,8,Miguel Garza,Alice,84.1,142.88,102.06,138.35,383.29,Single-ply,SBD,M
Junior Varsity,89.81,9,Bobby Salinas,Ingleside,84.82,138.35,86.18,158.76,383.29,Single-ply,SBD,M
Junior Varsity,89.81,10,Zach Collings,Corpus Christi Calallen,88.18,142.88,79.38,145.15,367.41,Single-ply,SBD,M
Junior Varsity,89.81,11,Fonzy Chavez,Ingleside,84.55,111.13,95.25,142.88,349.27,Single-ply,SBD,M
Junior Varsity,89.81,12,Jacob Romero,Corpus Christi West Oso,87.72,124.74,74.84,142.88,342.46,Single-ply,SBD,M
Junior Varsity,89.81,13,Mateo Lopez,Alice,86.82,120.2,83.91,120.2,324.32,Single-ply,SBD,M
Junior Varsity,89.81,14,Jordan Kasper-Hines,Three Rivers,89.81,120.2,65.77,133.81,319.78,Single-ply,SBD,M
Junior Varsity,99.79,1,Luis Guerra,Bishop,94.44,210.92,90.72,197.31,498.95,Single-ply,SBD,M
Junior Varsity,99.79,2,Ricky Gutierrez,Bishop,99.7,208.65,92.99,188.24,489.88,Single-ply,SBD,M
Junior Varsity,99.79,3,Jeremiah Reyes,Corpus Christi Calallen,93.44,188.24,104.33,172.37,464.93,Single-ply,SBD,M
Junior Varsity,99.79,4,Jody Stratmann,Port Lavaca Calhoun,99.34,172.37,99.79,172.37,444.52,Single-ply,SBD,M
Junior Varsity,99.79,5,Jose Hernandez #23,Yoakum,91.08,165.56,95.25,167.83,428.64,Single-ply,SBD,M
Junior Varsity,99.79,6,Richard Huettel,Rockport-Fulton,99.43,165.56,92.99,165.56,424.11,Single-ply,SBD,M
Junior Varsity,99.79,7,Oscar Ramirez,Gregory-Portland,90.81,154.22,86.18,165.56,405.97,Single-ply,SBD,M
Junior Varsity,99.79,8,Kyle Howell,Yoakum,92.17,151.95,97.52,147.42,396.89,Single-ply,SBD,M
Junior Varsity,99.79,9,David Silva,Corpus Christi Calallen,99.79,138.35,86.18,163.29,387.82,Single-ply,SBD,M
Junior Varsity,109.77,1,Tony Barrera,Corpus Christi Tuloso-Midway,102.42,204.12,131.54,195.04,530.7,Single-ply,SBD,M
Junior Varsity,109.77,2,Daniel Diaz,Three Rivers,100.52,204.12,131.54,190.51,526.17,Single-ply,SBD,M
Junior Varsity,109.77,3,Gabriel García,Yoakum,104.6,197.31,90.72,170.1,458.13,Single-ply,SBD,M
Junior Varsity,109.77,4,Ryan Arriaga,Port Lavaca Calhoun,100.7,204.12,108.86,142.88,455.86,Single-ply,SBD,M
Junior Varsity,109.77,5,Matthew Ruiz,Three Rivers,105.6,163.29,83.91,181.44,428.64,Single-ply,SBD,M
Junior Varsity,109.77,6,Marc Hinojosa,Bishop,101.15,147.42,102.06,151.95,401.43,Single-ply,SBD,M
Junior Varsity,124.74,1,Marcus Varra,Beeville Jones,111.31,249.48,154.22,188.24,591.94,Single-ply,SBD,M
Junior Varsity,124.74,2,Morgan Molina,Port Lavaca Calhoun,124.01,222.26,124.74,195.04,542.04,Single-ply,SBD,M
Junior Varsity,124.74,3,Cameron Ellerbee,Beeville Jones,112.67,174.63,108.86,183.7,467.2,Single-ply,SBD,M
Junior Varsity,124.74,4,Sammie Simmons,Three Rivers,113.49,142.88,106.59,217.72,467.2,Single-ply,SBD,M
Junior Varsity,124.74+,1,Sergio Garcia,Corpus Christi Calallen,136.26,204.12,108.86,206.38,519.36,Single-ply,SBD,M
Junior Varsity,124.74+,2,James Flanigan,Ingleside,128.46,161.03,95.25,158.76,415.04,Single-ply,SBD,M
Junior Varsity,124.74+,DQ,Thalen Villarreal,Port Lavaca Calhoun,151.14,204.12,,,,Single-ply,SBD,M
