Place,Sex,Name,Event,Division,WeightClassKg,Equipment,Team,BodyweightKg,Squat1Kg,Squat2Kg,Squat3Kg,Best3SquatKg,Bench1Kg,Bench2Kg,Bench3Kg,Best3BenchKg,Deadlift1Kg,Deadlift2Kg,Deadlift3Kg,Best3DeadliftKg,TotalKg,BirthYear
1,M,Gavin Webster,SBD,MR-T2,66,Raw,,65,147.5,160,167.5,167.5,105,115,120,120,182.5,197.5,205,205,492.5,1999
2,M,Filip Tomaszkiewicz,SBD,MR-T2,66,Raw,Alpha,64.2,102.5,-122.5,132.5,132.5,80,92.5,-100,92.5,142.5,160,170,170,395,1999
1,M,Lawrence Se,SBD,MR-T2,74,Raw,Alpha,69.2,120.2,135,145,145,80,-92.5,92.5,92.5,142.5,165,177.5,177.5,415,1999
1,M,Anthony McGuill,SBD,MR-T2,83,Raw,,82.6,155,162.5,170,170,100,110,117.5,117.5,205,215,227.5,227.5,515,1998
1,M,Jeffrey Chan,SBD,MR-T3,66,Raw,Alpha,64.4,132.5,145,-152.5,145,82.5,90,-95,90,182.5,-200,-200,182.5,417.5,1995
1,M,Jonathan Voltaire,SBD,MR-T3,83,Raw,,82.7,190,200,210,210,130,140,142.5,142.5,260,272.5,277.5,277.5,630,1995
2,M,Jacob Montes,SBD,MR-T3,83,Raw,,76.6,165,177.5,190,190,105,110,-122.5,110,167.5,182.5,195,195,495,1996
1,M,Zachary Young,SBD,M-T1,53,Single-ply,,51.1,70,80,-82.5,80,30,-37.5,-37.5,30,67.5,77.5,85,85,195,2001
DQ,M,Brady Adair,SBD,M-T1,66,Single-ply,,63.3,-112.5,-112.5,-112.5,,,,,,112.5,,,112.5,,2000
1,M,Jared Holmes #2,SBD,M-T2,66,Single-ply,,62.9,-150,150,-157.5,150,87.5,-102.5,-102.5,87.5,175,182.5,-195,182.5,420,1998
1,M,Justin Friesenhahn,SBD,M-T3,74,Single-ply,,72.4,180,182.5,-190,182.5,102.5,-110,-115,102.5,185,197.5,207.5,207.5,492.5,1995
1,M,John Groff,SBD,M-T3,93,Single-ply,,91.8,215,235,-242.5,235,145,150,160,160,212.5,227.5,252.5,252.5,647.5,1996
1,M,Richard Pena,SBD,M-Jr,105,Single-ply,,96.7,-300,-300,300,300,210,217.5,-250,217.5,-242.5,242.5,-250,242.5,760,
1,M,Daud Jamshaid,SBD,MR-Jr,59,Raw,,58.6,107.5,115,125,125,82.5,92.5,-100,92.5,142.5,150,157.5,157.5,375,1995
1,M,Anthony Grimes,SBD,MR-Jr,66,Raw,Alpha,65.6,159,175,-185,175,109,117.5,125,125,200,215,-248,215,515,1994
1,M,Peter Vang,SBD,MR-Jr,74,Raw,,74,165,175,182.5,182.5,110,-120,-120,110,200,217.5,227.5,227.5,520,1991
2,M,Mohamad Marhalim,SBD,MR-Jr,74,Raw,,73.3,142.5,150,160,160,102.5,110,-112.5,110,167.5,177.5,185,185,455,1992
3,M,Kevin Zelaya,SBD,MR-Jr,74,Raw,Alpha,69,142.5,150,162.5,162.5,87.5,92.5,-97.5,92.5,185,195,-205,195,450,1993
4,M,Nam Hee Kim,SBD,MR-Jr,74,Raw,,67.2,130,137.5,-142.5,137.5,77.5,82.5,-85,82.5,155,162.5,167.5,167.5,387.5,1993
1,M,Jonathan Bradfield,SBD,MR-Jr,83,Raw,Alpha,80.3,207.5,217.5,227.5,227.5,152.5,-162.5,162.5,162.5,265,287.5,-295,287.5,677.5,1993
2,M,Austin Stephen,SBD,MR-Jr,83,Raw,,81.8,217.5,227.5,232.5,232.5,142.5,147.5,-150,147.5,262.5,275,-287.5,275,655,1995
3,M,Brandon Morales,SBD,MR-Jr,83,Raw,,80.1,182.5,192.5,-200,192.5,102.5,110,117.5,117.5,192.5,205,217.5,217.5,527.5,1995
4,M,Riley Fallon,SBD,MR-Jr,83,Raw,,78.5,145,155,162.5,162.5,130,-135,-137.5,130,180,192.5,205,205,497.5,1992
5,M,Nolan Fallon,SBD,MR-Jr,83,Raw,GI,80.3,137.5,145,150,150,110,115,-120,115,147.5,157.5,-165,157.5,422.5,1994
1,M,Jose Tovar,SBD,MR-C,53,Raw,ASU,50.4,-40,40,-47.5,40,47.5,52.5,-60,52.5,92.5,97.5,102.5,102.5,195,1997
1,M,Marcellus Williams,SBD,MR-C,74,Raw,,72.1,150,167.5,-182.5,167.5,132.5,142.5,147.5,147.5,165,180,190,190,505,1994
2,M,Donald Baker,SBD,MR-C,74,Raw,ASU,71.8,150,-162.5,-162.5,150,117.5,120,122.5,122.5,182.5,195,200,200,472.5,1995
1,M,Jonathan Voltaire,SBD,MR-C,83,Raw,,82.7,190,200,210,210,130,140,142.5,142.5,260,272.5,277.5,277.5,630,1995
2,M,Jeremiah Velasco,SBD,MR-C,83,Raw,,82.4,202.5,-210,-210,202.5,112.5,117.5,122.5,122.5,237.5,247.5,260,260,585,1995
3,M,Joshua T. Williams,SBD,MR-C,83,Raw,ASU,81.6,185,197.5,205,205,105,112.5,115,115,215,227.5,-232.5,227.5,547.5,
4,M,Josh Fisher,SBD,MR-C,83,Raw,ASU,80,160,167.5,175,175,112.5,122.5,-130,122.5,200,212.5,220,220,517.5,1996
5,M,Ethan Cantrell,SBD,MR-C,83,Raw,ASU,80.9,132.5,142.5,-150,142.5,67.5,75,-80,75,152.5,162.5,170,170,387.5,1996
1,M,James Woodruff,SBD,MR-C,93,Raw,,91.5,225,232.5,242.5,242.5,142.5,147.5,152.5,152.5,230,237.5,245,245,640,
2,M,Jonathan Buck,SBD,MR-C,93,Raw,ASU,90.6,130,140,147.5,147.5,115,125,137.5,137.5,182.5,200,217.5,217.5,502.5,1992
1,M,Connor Qualls,SBD,MR-C,105,Raw,,104.1,140,195,205,205,152.5,157.5,160,160,227.5,235,242.5,242.5,607.5,1995
2,M,Heriverto Zapata,SBD,MR-C,105,Raw,ASU,100.1,230,-237.5,237.5,237.5,135,140,-145,140,205,217.5,227.5,227.5,605,1995
DQ,M,William Goode,SBD,MR-C,105,Raw,,102.8,192.5,210,-212.5,210,-135,-142.5,-142.5,,205,217.5,232.5,232.5,,1995
1,M,Jesse Burttschell,SBD,MR-C,120+,Raw,,121.3,265,275,282.5,282.5,192.5,202.5,210,210,275,287.5,300,300,792.5,1993
2,M,Bronson Burks,SBD,MR-C,120+,Raw,ASU,128.5,220,240,252.5,252.5,120,125,132.5,132.5,250,267.5,282.5,282.5,667.5,1997
3,M,Carlos Ochoa,SBD,MR-C,120+,Raw,ASU,144,145,160,170,170,102.5,112.5,120,120,185,200,210,210,500,1994
1,M,Michael Hafenbrack,SBD,M-O,66,Single-ply,,66,242.5,252.5,255,255,152.5,157.5,160,160,240,250,260,260,675,1984
DQ,M,Mason Wright,SBD,M-O,74,Single-ply,,73,202.5,-210,-215,202.5,-137.5,-137.5,-137.5,,195,210,227.5,227.5,,1990
1,M,Sergio Rodriguez #4,SBD,M-O,83,Single-ply,,80,200,207.5,212.5,212.5,150,160,-167.5,160,202.5,212.5,220,220,592.5,
1,M,David Young,SBD,M-O,105,Single-ply,,104.7,320,330,335,335,225,235,250,250,240,257.5,272.5,272.5,857.5,1989
2,M,Jacob Morton,SBD,M-O,105,Single-ply,,98.6,185,190,-195,190,147.5,152.5,-162.5,152.5,205,227.5,235,235,577.5,1991
1,M,Gavin Webster,SBD,MR-O,66,Raw,,65,147.5,160,167.5,167.5,105,115,120,120,182.5,197.5,205,205,492.5,1999
1,M,Luis Bosch,SBD,MR-O,74,Raw,,70.6,162.5,170,-175,170,120,127.5,-132.5,127.5,175,192.5,202.5,202.5,500,1990
1,M,Dietrich Krumholz,SBD,MR-O,83,Raw,,81.2,170,182.5,190,190,97.5,102.5,-110,102.5,165,172.5,180,180,472.5,1988
2,M,Austin Chaffin,SBD,MR-O,83,Raw,,81.4,110,130,142.5,142.5,-110,115,-125,115,137.5,180,192.5,192.5,450,1986
3,M,Dustin Bassett,SBD,MR-O,83,Raw,,77.6,102.5,107.5,112.5,112.5,72.5,75,-80,75,122.5,127.5,-135,127.5,315,1988
1,M,Benjamin Swope,SBD,MR-O,93,Raw,,92.2,237.5,252.5,260,260,155,160,-165,160,235,252.5,262.5,262.5,682.5,1978
2,M,William Behr,SBD,MR-O,93,Raw,,89.4,175,182.5,192.5,192.5,120,130,137.5,137.5,212.5,225,237.5,237.5,567.5,1969
3,M,Angel Enriquez,SBD,MR-O,93,Raw,,89.1,165,172.5,180,180,140,147.5,-150,147.5,205,215,-220,215,542.5,1985
4,M,Carleton Vangsness,SBD,MR-O,93,Raw,,83.6,165,175,180,180,95,100,107.5,107.5,182.5,192.5,202.5,202.5,490,1987
5,M,Ilias Karkanis,SBD,MR-O,93,Raw,GI,84.2,115,122.5,130,130,95,-102.5,-102.5,95,135,142.5,-150,142.5,367.5,
1,M,Janian Garcia,SBD,MR-O,105,Raw,Alpha,102.8,195,207.5,222.5,222.5,125,130,-137.5,130,240,250,260,260,612.5,1990
2,M,Charles Gonzales #1,SBD,MR-O,105,Raw,ASU,103.4,187.5,195,-205,195,132.5,137.5,-145,137.5,255,265,272.5,272.5,605,1984
3,M,Jon Brown,SBD,MR-O,105,Raw,,102.4,165,177.5,192.5,192.5,127.5,137.5,142.5,142.5,182.5,200,215,215,550,1990
4,M,Jay Stang,SBD,MR-O,105,Raw,,100.8,130,-140,152.5,152.5,85,92.5,-102.5,92.5,175,187.5,205,205,450,1976
5,M,Logan Nelson,SBD,MR-O,105,Raw,,93.4,137.5,147.5,155,155,-75,82.5,-85,82.5,125,137.5,142.5,142.5,380,1997
1,M,Jeremy Folstad,SBD,MR-O,120,Raw,,115.6,175,190,200,200,115,125,-135,125,182.5,202.5,212.5,212.5,537.5,
1,M,Zachary McLemore,SBD,MR-O,120+,Raw,,122.4,100,110,115,115,87.5,92.5,-95,92.5,135,145,150,150,357.5,1984
1,M,Randy Balentine,SBD,MR-M1a,93,Raw,GI,87.4,140,147.5,152.5,152.5,97.5,102.5,-105,102.5,195,-210,-215,195,450,1973
1,M,Alan Krockover,SBD,M-M1b,105,Single-ply,,104.5,255,-265,280,280,165,-180,-182.5,165,-245,255,-265,255,700,1968
1,M,William Behr,SBD,MR-M1b,93,Raw,,89.4,175,182.5,192.5,192.5,120,130,137.5,137.5,212.5,225,237.5,237.5,567.5,1969
1,M,Duane Young,SBD,MR-M2b,74,Raw,,73.2,132.5,-140,-140,132.5,87.5,95,-100,95,167.5,182.5,-187.5,182.5,410,1960
1,M,Marc Frazier,SBD,MR-M2b,83,Raw,GI,82.9,117.5,125,130,130,100,-105,,100,100,125,150,150,380,1960
1,M,Jake Holmes,SBD,MR-Y3,74,Raw,,72.3,75,82.5,-90,82.5,60,-65,65,65,120,-130,130,130,277.5,2002
1,F,Amanda Vu,SBD,FR-T3,52,Raw,Alpha,50.8,77.5,85,-92.5,85,27.5,32.5,-37.5,32.5,72.5,82.5,87.5,87.5,205,1997
1,F,Brittney Barksdale,SBD,FR-T3,84,Raw,ASU,81.2,130,142.5,-145,142.5,62.5,72.5,75,75,132.5,147.5,155,155,372.5,1996
1,F,Gabby Martinez,SBD,F-T3,63,Single-ply,,62.3,125,137.5,142.5,142.5,60,-67.5,70,70,122.5,137.5,142.5,142.5,355,1997
1,F,Caitlyn Buck,SBD,FR-Jr,57,Raw,ASU,56.7,102.5,110,-112.5,110,62.5,-65,-65,62.5,142.5,152.5,-157.5,152.5,325,1994
1,F,Naomi Kimnell,SBD,FR-Jr,63,Raw,Alpha,60.7,72.5,87.5,92.5,92.5,32.5,40,-47.5,40,127.5,-140,-147.5,127.5,260,1994
1,F,Olivia Harrington,SBD,FR-Jr,72,Raw,,70.9,132.5,-140,140,140,72.5,77.5,-82.5,77.5,142.5,152.5,-160,152.5,370,1992
1,F,Desiree Trinidad,SBD,FR-Jr,84+,Raw,ASU,84.6,142.5,150,160,160,102.5,110,-112.5,110,157.5,167.5,-177.5,167.5,437.5,1995
2,F,Jennifer Moran,SBD,FR-Jr,84+,Raw,,85.4,115,125,135,135,70,77.5,-85,77.5,132.5,145,155,155,367.5,1993
3,F,Amie Mullen,SBD,FR-Jr,84+,Raw,,90.4,87.5,90,-92.5,90,35,37.5,40,40,97.5,105,112.5,112.5,242.5,1992
1,F,Megan Doyle,SBD,F-C,84,Single-ply,,80.4,130,-145,-145,130,35,57.5,62.5,62.5,127.5,145,160,160,352.5,1997
1,F,Caitlyn Buck,SBD,FR-C,57,Raw,ASU,56.7,102.5,110,-112.5,110,62.5,-65,-65,62.5,142.5,152.5,-157.5,152.5,325,1994
2,F,Ashley Gibson #1,SBD,FR-C,57,Raw,,56.6,62.5,70,-80,70,37.5,-45,-45,37.5,67.5,75,82.5,82.5,190,
1,F,Alyssa Gaitan,SBD,FR-C,63,Raw,ASU,61.9,120,130,137.5,137.5,70,-75,-75,70,135,145,152.5,152.5,360,1995
2,F,Kali Mendez,SBD,FR-C,63,Raw,ASU,61.1,67.5,72.5,80,80,47.5,52.5,-55,52.5,97.5,102.5,107.5,107.5,240,1996
1,F,Hannah Malcomb,SBD,FR-C,72,Raw,,69.5,110,120,-127.5,120,57.5,62.5,65,65,127.5,142.5,147.5,147.5,332.5,1992
1,F,Cheyenne Liles,SBD,FR-C,84,Raw,,81.2,115,125,-137.5,125,62.5,67.5,-72.5,67.5,125,140,142.5,142.5,335,1996
2,F,Rhiannon Howard,SBD,FR-C,84,Raw,ASU,75.9,100,-115,-115,100,55,57.5,-60,57.5,110,122.5,125,125,282.5,1996
3,F,Daisy Delgado,SBD,FR-C,84,Raw,ASU,76,-100,-100,100,100,45,47.5,-50,47.5,107.5,117.5,125,125,272.5,1996
4,F,Victoria Reyna,SBD,FR-C,84,Raw,ASU,83.8,65,72.5,82.5,82.5,-42.5,42.5,52.5,52.5,92.5,105,115,115,250,1996
5,F,Hannah Howell #2,SBD,FR-C,84,Raw,ASU,81,-70,75,82.5,82.5,35,42.5,-47.5,42.5,95,105,-115,105,230,1996
1,F,Jennifer Moran,SBD,FR-C,84+,Raw,,85.4,115,125,135,135,70,77.5,-85,77.5,132.5,145,155,155,367.5,1993
1,F,Sarah Wooderson,SBD,F-O,63,Single-ply,GI,59.7,92.5,-97.5,-100,92.5,47.5,50,52.5,52.5,107.5,115,120,120,265,
1,F,Tiffany McKinney,SBD,F-O,84+,Single-ply,,107,140,150,160,160,122.5,-135,-135,122.5,142.5,152.5,162.5,162.5,445,1989
1,F,Zigler Ana,SBD,FR-O,47,Raw,,46.6,-97.5,97.5,-105,97.5,52.5,-57.5,57.5,57.5,110,122.5,130,130,285,1987
1,F,Ashlee Hafenbrack,SBD,FR-O,52,Raw,,51.7,95,100,-105,100,65,-72.5,72.5,72.5,125,135,137.5,137.5,310,1988
1,F,Caitlyn Buck,SBD,FR-O,57,Raw,ASU,56.7,102.5,110,-112.5,110,62.5,-65,-65,62.5,142.5,152.5,-157.5,152.5,325,1994
2,F,Jassmin Villacorta,SBD,FR-O,57,Raw,,55.2,100,105,110,110,62.5,65,-67.5,65,125,130,135,135,310,1984
3,F,Rose Kalgren,SBD,FR-O,57,Raw,,53.5,97.5,100,-102.5,100,57.5,-60,60,60,112.5,115,-120,115,275,1989
1,F,Jade Coleman,SBD,FR-O,63,Raw,,60.1,115,120,-127.5,120,70,77.5,82.5,82.5,130,135,142.5,142.5,345,1981
2,F,Kimberly Nash,SBD,FR-O,63,Raw,,62,110,115,-117.5,115,57.5,-60,60,60,142.5,152.5,-155,152.5,327.5,1968
3,F,Ryan Behr,SBD,FR-O,63,Raw,,62.7,102.5,110,117.5,117.5,65,67.5,-70,67.5,125,132.5,142.5,142.5,327.5,1981
4,F,Marguerite Beckingham,SBD,FR-O,63,Raw,GI,58.6,90,-95,-95,90,57.5,60,-62.5,60,100,107.5,112.5,112.5,262.5,1988
1,F,Olivia Harrington,SBD,FR-O,72,Raw,,70.9,132.5,-140,140,140,72.5,77.5,-82.5,77.5,142.5,152.5,-160,152.5,370,1992
1,F,Maria Gonzales,SBD,FR-O,84,Raw,,82.1,65,72.5,-80,72.5,37.5,40,-42.5,40,85,92.5,97.5,97.5,210,1983
1,F,Desiree Trinidad,SBD,FR-O,84+,Raw,ASU,84.6,142.5,150,160,160,102.5,110,-112.5,110,157.5,167.5,-177.5,167.5,437.5,1995
2,F,Ashly Nunnery,SBD,FR-O,84+,Raw,,105,127.5,137.5,-145,137.5,67.5,-80,-80,67.5,150,160,172.5,172.5,377.5,1989
3,F,Meagan Semora,SBD,FR-O,84+,Raw,,118.2,125,-140,-145,125,67.5,72.5,-77.5,72.5,-130,-130,130,130,327.5,1990
4,F,Elizabeth McLemore,SBD,FR-O,84+,Raw,,100.3,55,60,65,65,40,42.5,,42.5,92.5,100,105,105,212.5,1985
1,F,Cacie Gauvin,SBD,FR-M1a,57,Raw,,56.6,75,82.5,87.5,87.5,57.5,60,-62.5,60,80,87.5,92.5,92.5,240,
1,F,Marry Su,SBD,FR-M1b,52,Raw,,50.3,77.5,-82.5,82.5,82.5,40,-45,-45,40,85,90,100,100,222.5,
1,F,Kimberly Nash,SBD,FR-M1b,63,Raw,,62,110,115,-117.5,115,57.5,-60,60,60,142.5,152.5,-155,152.5,327.5,1968
1,F,Cheryl Sellstrom,SBD,FR-M2a,84,Raw,,73.4,55,-57.5,-60,55,42.5,-45,-45,42.5,60,67.5,72.5,72.5,170,1962
1,F,Julie Holloway,SBD,FR-M2b,52,Raw,GI,49.4,67.5,-70,-72.5,67.5,37.5,40,-42.5,40,90,97.5,102.5,102.5,210,
1,F,Dora Gonzalez,SBD,FR-M2b,57,Raw,,53.7,55,60,62.5,62.5,-47.5,47.5,52.5,52.5,90,95,100,100,215,1957
1,F,Deb Keenan,SBD,FR-M2b,72,Raw,GI,65.1,60,65,67.5,67.5,40,45,-47.5,45,90,95,100,100,212.5,
1,F,Mary Faith Jones,SBD,FR-Y3,63,Raw,,59.2,-57.5,57.5,67.5,67.5,22.5,30,-35,30,65,72.5,80,80,177.5,
1,F,Amy Wrubel,SBD,FR-Y3,84,Raw,,82.4,75,80,87.5,87.5,40,42.5,-47.5,42.5,92.5,102.5,110,110,240,2001
3,M,Marcellus Williams,B,MR-C,74,Raw,,72.1,,,,,132.5,142.5,147.5,147.5,,,,,147.5,1994
4,M,Donald Baker,B,MR-C,74,Raw,ASU,71.8,,,,,117.5,120,122.5,122.5,,,,,122.5,1995
1,M,William Nadzak,B,MR-M3b,105,Raw,,101.4,,,,,142.5,150,-157.5,150,,,,,150,1949
1,F,Valerie Davis,B,FR-T3,57,Raw,ASU,56.2,,,,,27.5,32.5,35,35,,,,,35,1996
1,F,Cursti Cope,B,F-T3,84+,Single-ply,,87,,,,,142.5,152.5,-167.5,152.5,,,,,152.5,1997
1,F,Jade Dickens,B,F-M1a,84+,Single-ply,,109.4,,,,,160,170,-180,170,,,,,170,1974
1,F,Deborah Guerra,B,FR-M2a,63,Raw,,61.5,,,,,32.5,35,37.5,37.5,,,,,37.5,1964
2,M,Kin Wei Wu Mai,BD,MR-Jr,59,Raw,,58.3,,,,,-62.5,62.5,-72.5,62.5,102.5,125,142.5,142.5,205,
1,M,Cailer Woolam,BD,MR-Jr,93,Raw,,92.1,,,,,-177.5,177.5,-182.5,177.5,290,-322.5,322.5,322.5,500,
1,M,Kin Wei Wu Mai,BD,MR-C,59,Raw,,58.3,,,,,-62.5,62.5,-72.5,62.5,102.5,125,142.5,142.5,205,
6,M,Angel Enriquez,BD,MR-O,93,Raw,,89.1,,,,,140,147.5,-150,147.5,205,215,-220,215,362.5,1985
2,M,Kevin Perry,BD,MR-O,120,Raw,GI,108.7,,,,,-147.5,147.5,155,155,215,227.5,-235,227.5,382.5,
1,M,John C Conniff,BD,MR-M4a,120,Raw,,110.8,,,,,-125,125,-138.5,125,-160,165,170,170,295,1941
2,F,Meghan Cantu,BD,FR-O,84,Raw,,75.9,,,,,57.5,62.5,65,65,102.5,110,115,115,180,1981
1,F,Liz Rivera,BD,FR-M1a,84+,Raw,,99.4,,,,,42.5,47.5,50,50,122.5,130,135,135,185,1974
